Universal ACDC v.1.38
importing alife objects...
importing alife objects from file alife_l01_escape.ltx...
team 0, squad 0, group 0, esc_actor_0001
team 0, squad 0, group 0, esc_boar_weak_0006
team 0, squad 0, group 0, esc_bd__m_boar_e_0006
team 0, squad 0, group 0, esc_bd__m_boar_e_0007
team 0, squad 0, group 0, esc_bd__m_boar_e_0008
team 0, squad 0, group 0, esc_boar_weak
team 0, squad 1, group 22, esc_boar_weak_0000
team 0, squad 0, group 0, esc_boar_weak_0003
team 0, squad 1, group 22, esc_boar_weak_0004
team 0, squad 11, group 10, esc_dog_normal
team 0, squad 11, group 10, esc_dog_normal_0000
team 0, squad 0, group 0, esc_dog_normal_0001
team 0, squad 11, group 11, esc_dog_strong
team 0, squad 1, group 15, esc_dog_weak_0002
team 0, squad 1, group 15, esc_dog_weak_0006
team 0, squad 1, group 15, esc_dog_weak_0007
team 0, squad 0, group 0, esc_bd__m_dog_e_0008
team 0, squad 0, group 0, esc_bd__m_dog_e_0010
team 0, squad 0, group 0, esc_bd__m_dog_e_0011
team 0, squad 0, group 0, esc_bd__m_dog_e_0012
team 0, squad 0, group 0, esc_bd__m_dog_e_0013
team 0, squad 0, group 0, esc_bd_m_dog_e_0009
team 0, squad 1, group 14, esc_dog_swarm_0001
team 0, squad 1, group 14, esc_dog_swarm_0002
team 0, squad 1, group 14, esc_dog_swarm_0004
team 0, squad 1, group 14, esc_dog_swarm_0007
team 0, squad 0, group 0, esc_dog_weak
team 0, squad 0, group 0, esc_dog_weak_0000
team 0, squad 0, group 0, esc_dog_weak_0001
team 0, squad 0, group 0, esc_dog_weak_0003
team 0, squad 0, group 0, esc_dog_weak_0004
team 0, squad 0, group 0, esc_dog_weak_0005
team 0, squad 0, group 0, esc_dog_weak_0008
team 0, squad 1, group 22, esc_dog_weak_0009
team 0, squad 1, group 22, esc_dog_weak_0010
team 0, squad 1, group 22, esc_dog_weak_0011
team 0, squad 1, group 22, esc_dog_weak_0012
team 0, squad 1, group 22, esc_dog_weak_0013
team 0, squad 1, group 22, esc_dog_weak_0014
team 0, squad 1, group 22, esc_dog_weak_0015
team 0, squad 0, group 0, esc_dog_weak_0016
team 0, squad 0, group 0, esc_dog_weak_0017
team 0, squad 0, group 0, esc_dog_weak_0018
team 0, squad 0, group 0, esc_dog_weak_0019
team 0, squad 0, group 0, esc_dog_weak_0020
team 0, squad 0, group 0, esc_dog_weak_0021
team 0, squad 0, group 0, esc_dog_weak_0022
team 0, squad 0, group 0, esc_dog_weak_0023
team 0, squad 0, group 0, esc_dog_weak_0024
team 0, squad 0, group 0, esc_dog_weak_0025
team 0, squad 0, group 0, esc_dog_weak_0026
team 0, squad 0, group 0, esc_dog_weak_0027
team 0, squad 0, group 0, esc_dog_weak_0028
team 0, squad 0, group 0, esc_dog_weak_0029
team 0, squad 0, group 0, esc_dog_weak_0030
team 0, squad 0, group 0, esc_dog_weak_0031
team 0, squad 0, group 0, esc_dog_weak_0032
team 0, squad 0, group 0, esc_flesh_normal
team 0, squad 0, group 0, esc_flesh_normal_0000
team 0, squad 0, group 0, esc_flesh_normal_0001
team 0, squad 0, group 0, esc_flesh_normal_0004
team 0, squad 0, group 0, esc_flesh_normal_0008
team 0, squad 1, group 22, esc_flesh_weak_0000
team 0, squad 1, group 22, esc_flesh_weak_0001
team 0, squad 1, group 2, esc_bridge_soldier1
team 0, squad 1, group 2, esc_bridge_soldier2
team 0, squad 1, group 2, esc_bridge_soldier3
team 0, squad 1, group 2, esc_bridge_soldier4
team 0, squad 1, group 2, esc_bridge_soldier5
team 0, squad 1, group 2, zona_brother1
team 0, squad 1, group 2, zona_brother2
team 0, squad 0, group 0, esc_m_crow
team 0, squad 0, group 0, esc_m_crow_0000
team 0, squad 0, group 0, esc_m_crow_0001
team 0, squad 0, group 0, esc_m_crow_0002
team 0, squad 0, group 0, esc_m_crow_0003
team 0, squad 0, group 0, esc_m_crow_0004
team 0, squad 0, group 0, esc_m_crow_0005
team 0, squad 0, group 0, esc_m_crow_0006
team 0, squad 0, group 0, esc_m_crow_0007
team 0, squad 0, group 0, esc_m_crow_0008
team 0, squad 0, group 0, esc_m_crow_0009
team 0, squad 0, group 0, esc_m_crow_0010
team 0, squad 0, group 0, esc_m_crow_0011
team 0, squad 0, group 0, esc_m_crow_0012
team 0, squad 0, group 0, esc_m_crow_0013
team 0, squad 0, group 0, esc_m_crow_0014
team 0, squad 0, group 0, esc_m_crow_0015
team 0, squad 0, group 0, esc_m_crow_0016
team 0, squad 0, group 0, esc_m_crow_0017
team 0, squad 0, group 0, esc_m_crow_0018
team 0, squad 0, group 0, esc_m_crow_0019
team 0, squad 0, group 0, esc_m_crow_0020
team 0, squad 0, group 0, esc_m_crow_0021
team 0, squad 0, group 0, esc_m_crow_0022
team 0, squad 0, group 0, esc_m_crow_0023
team 0, squad 0, group 0, esc_m_crow_0024
team 0, squad 0, group 0, esc_m_crow_0025
team 0, squad 0, group 0, esc_m_crow_0026
team 0, squad 0, group 0, esc_m_crow_0027
team 0, squad 0, group 0, esc_m_crow_0028
team 0, squad 0, group 0, esc_m_crow_0029
team 0, squad 0, group 0, esc_m_crow_0030
team 0, squad 0, group 0, esc_m_crow_0031
team 0, squad 0, group 0, esc_m_crow_0032
team 0, squad 0, group 0, esc_m_crow_0033
team 0, squad 0, group 0, esc_m_crow_0034
team 0, squad 0, group 0, esc_m_crow_0035
team 0, squad 0, group 0, esc_m_crow_0036
team 0, squad 0, group 0, esc_m_crow_0037
team 0, squad 0, group 0, esc_m_crow_0038
team 0, squad 0, group 0, esc_m_crow_0039
team 0, squad 0, group 0, esc_m_crow_0040
team 0, squad 0, group 0, esc_m_crow_0041
team 0, squad 0, group 0, esc_m_crow_0042
team 0, squad 0, group 0, esc_m_crow_0043
team 0, squad 0, group 0, esc_m_crow_0044
team 0, squad 0, group 0, esc_m_crow_0045
team 0, squad 0, group 0, esc_m_crow_0046
team 0, squad 0, group 0, esc_m_crow_0047
team 0, squad 0, group 0, esc_m_crow_0048
team 0, squad 0, group 0, esc_m_crow_0049
team 0, squad 0, group 0, esc_m_crow_0050
team 0, squad 0, group 0, esc_m_crow_0051
team 0, squad 0, group 0, esc_m_crow_0052
team 0, squad 0, group 0, esc_m_crow_0053
team 0, squad 0, group 0, secret_villager
team 0, squad 0, group 0, esc_pseudodog_strong
team 0, squad 11, group 12, esc_pseudodog_weak
team 0, squad 1, group 1, esc_blokpost_commander
team 0, squad 1, group 1, esc_blokpost_soldier1
team 0, squad 1, group 1, esc_blokpost_soldier2
team 0, squad 1, group 1, esc_blokpost_soldier3
team 0, squad 1, group 1, esc_blokpost_soldier4
team 0, squad 1, group 1, esc_blokpost_soldier5
team 0, squad 1, group 1, esc_blokpost_soldier6
team 0, squad 1, group 1, esc_blokpost_soldier7
team 0, squad 1, group 1, esc_blokpost_soldier8
team 0, squad 1, group 1, esc_blokpost_soldier9
team 0, squad 1, group 2, esc_bridge_soldier1_0000
team 0, squad 1, group 3, esc_factory_bandit1
team 0, squad 1, group 3, esc_factory_bandit3
team 0, squad 1, group 3, esc_factory_bandit4
team 0, squad 1, group 3, esc_factory_bandit5
team 0, squad 1, group 3, esc_factory_bandit6
team 0, squad 1, group 3, esc_factory_bandit_7
team 0, squad 1, group 3, esc_factory_prisoner_guard
team 0, squad 1, group 0, esc_fox
team 0, squad 1, group 21, esc_gar_bandit1
team 0, squad 1, group 21, esc_gar_bandit2
team 0, squad 1, group 4, esc_killer1
team 0, squad 1, group 4, esc_killer2
team 0, squad 1, group 4, esc_killer3
team 0, squad 1, group 4, esc_killer4
team 0, squad 1, group 4, esc_killer6
team 0, squad 1, group 4, esc_killer7
team 0, squad 1, group 4, esc_killer8
team 0, squad 1, group 5, esc_lager1
team 0, squad 1, group 5, esc_lager2
team 0, squad 1, group 5, esc_lager3
team 0, squad 1, group 5, esc_lager4
team 0, squad 1, group 5, esc_lager5
team 0, squad 1, group 5, esc_lager6
team 0, squad 1, group 5, esc_lager7
team 0, squad 1, group 2, esc_last_request_military_1
team 0, squad 1, group 2, esc_last_request_military_2
team 0, squad 1, group 2, esc_last_request_military_3
team 0, squad 1, group 2, esc_last_request_military_4
team 0, squad 1, group 2, esc_last_request_military_5
team 0, squad 1, group 2, esc_lekar
team 0, squad 1, group 3, esc_millitary_near_anomaly_1
team 0, squad 1, group 3, esc_millitary_near_anomaly_2
team 0, squad 1, group 3, esc_millitary_near_anomaly_3
team 0, squad 1, group 3, esc_millitary_near_anomaly_commander
team 0, squad 1, group 0, esc_novice_attacker1
team 0, squad 1, group 0, esc_novice_attacker2
team 0, squad 1, group 0, esc_novice_attacker3
team 0, squad 1, group 0, esc_provodnik
team 0, squad 0, group 0, esc_shustryi
team 0, squad 1, group 6, esc_specnaz1
team 0, squad 1, group 6, esc_specnaz2
team 0, squad 1, group 6, esc_specnaz3
team 0, squad 1, group 6, esc_specnaz4
team 0, squad 1, group 6, esc_specnaz5
team 0, squad 1, group 6, esc_specnaz6
team 0, squad 0, group 0, esc_stalker
team 0, squad 0, group 0, esc_stalker_0000
team 0, squad 0, group 0, esc_stalker_1
team 0, squad 0, group 0, esc_stalker_2
team 0, squad 0, group 0, esc_stalker_3
team 0, squad 0, group 0, esc_stalker_corps1
team 0, squad 0, group 0, esc_stalker_corps1_0000
team 0, squad 0, group 0, esc_stalker_corps1_0001
team 0, squad 1, group 0, esc_stalker_corpse
team 0, squad 1, group 5, esc_stalker_fanat
team 0, squad 1, group 2, esc_starik_searcing_doch
team 0, squad 1, group 0, esc_trup_bratka
team 0, squad 0, group 0, esc_trup_scene
team 0, squad 1, group 0, esc_tutorial_dead_novice
team 0, squad 1, group 0, esc_vagon_wounded
team 0, squad 1, group 2, esc_visitor_on_elevator_killer
team 0, squad 1, group 2, esc_visitor_on_elevator_target
team 0, squad 1, group 5, esc_wolf
team 0, squad 1, group 2, first_neutral
team 0, squad 0, group 0, vehicle_esc_last_request_btr_01
team 0, squad 0, group 0, vehicle_esc_last_request_btr_02
team 0, squad 0, group 0, vehicle_esc_last_request_gaz66
team 0, squad 0, group 0, vehicle_esc_last_request_kamaz
team 0, squad 0, group 0, esc_m_car_0000
team 0, squad 0, group 0, esc_vehicle_zaz_in_novice_lager
team 0, squad 0, group 1, esc_semenov
team 0, squad 1, group 1, esc_blokpost_soldier10
team 0, squad 0, group 0, esc_guns_remontnik
team 0, squad 1, group 5, esc_buharik
importing alife objects from file alife_l02_garbage.ltx...
team 0, squad 0, group 0, gar_boar_rush_0002
team 0, squad 0, group 0, gar_boar_rush_0006
team 0, squad 0, group 0, gar_boar_rush_0007
team 0, squad 0, group 0, gar_boar_rush_0008
team 0, squad 0, group 0, gar_boar_rush_0009
team 0, squad 0, group 0, gar_boar_rush_0010
team 0, squad 0, group 0, gar_m_crow
team 0, squad 0, group 0, gar_m_crow_0000
team 0, squad 0, group 0, gar_m_crow_0001
team 0, squad 0, group 0, gar_m_crow_0002
team 0, squad 0, group 0, gar_m_crow_0003
team 0, squad 0, group 0, gar_m_crow_0004
team 0, squad 0, group 0, gar_m_crow_0005
team 0, squad 0, group 0, gar_m_crow_0006
team 0, squad 0, group 0, gar_m_crow_0007
team 0, squad 0, group 0, gar_m_crow_0008
team 0, squad 0, group 0, gar_m_crow_0009
team 0, squad 0, group 0, gar_m_crow_0010
team 0, squad 0, group 0, gar_m_crow_0011
team 0, squad 0, group 0, gar_m_crow_0012
team 0, squad 0, group 0, gar_m_crow_0013
team 0, squad 0, group 0, gar_m_crow_0014
team 0, squad 0, group 0, gar_m_crow_0015
team 0, squad 0, group 0, gar_m_crow_0016
team 0, squad 0, group 0, gar_m_crow_0017
team 0, squad 0, group 0, gar_m_crow_0018
team 0, squad 0, group 0, gar_m_crow_0019
team 0, squad 0, group 0, gar_m_crow_0020
team 0, squad 0, group 0, gar_m_crow_0021
team 0, squad 0, group 0, gar_m_crow_0022
team 0, squad 0, group 0, gar_m_crow_0023
team 0, squad 0, group 0, gar_m_crow_0024
team 0, squad 0, group 0, gar_m_crow_0025
team 0, squad 6, group 5, gar_pseudodog_weak
team 0, squad 2, group 1, gar_bandit_agr_1
team 0, squad 2, group 1, gar_bandit_agr_10
team 0, squad 2, group 1, gar_bandit_agr_11
team 0, squad 2, group 1, gar_bandit_agr_12
team 0, squad 2, group 1, gar_bandit_agr_13
team 0, squad 2, group 1, gar_bandit_agr_2
team 0, squad 2, group 1, gar_bandit_agr_3
team 0, squad 2, group 1, gar_bandit_agr_4
team 0, squad 2, group 1, gar_bandit_agr_5
team 0, squad 2, group 1, gar_bandit_agr_6
team 0, squad 2, group 1, gar_bandit_agr_7
team 0, squad 2, group 1, gar_bandit_agr_8
team 0, squad 2, group 1, gar_bandit_agr_9
team 0, squad 2, group 3, gar_bandit_post_1
team 0, squad 2, group 3, gar_bandit_post_2
team 0, squad 2, group 3, gar_bandit_post_3
team 0, squad 2, group 3, gar_bandit_post_4
team 0, squad 2, group 3, gar_bandit_post_5
team 0, squad 2, group 3, gar_bandit_post_6
team 0, squad 2, group 3, gar_bandit_post_7
team 0, squad 2, group 4, gar_bandit_seryi_1
team 0, squad 2, group 4, gar_bandit_seryi_2
team 0, squad 2, group 4, gar_bandit_seryi_3
team 0, squad 2, group 4, gar_bandit_seryi_4
team 0, squad 2, group 4, gar_bandit_seryi_5
team 0, squad 2, group 4, gar_bandit_seryi_6
team 0, squad 2, group 5, gar_bandit_stroyka1
team 0, squad 2, group 5, gar_bandit_stroyka2
team 0, squad 2, group 5, gar_bandit_stroyka3
team 0, squad 2, group 5, gar_bandit_stroyka4
team 0, squad 2, group 5, gar_bandit_stroyka5
team 0, squad 2, group 20, gar_dm_bandit_1
team 0, squad 2, group 20, gar_dm_bandit_2
team 0, squad 2, group 20, gar_dm_bandit_3
team 0, squad 2, group 6, gar_dm_novice
team 0, squad 2, group 7, gar_dolg_blokpost_1
team 0, squad 2, group 7, gar_dolg_blokpost_2
team 0, squad 2, group 7, gar_dolg_blokpost_3
team 0, squad 2, group 7, gar_dolg_blokpost_4
team 0, squad 2, group 7, gar_dolg_blokpost_5
team 0, squad 2, group 7, gar_dolg_blokpost_6
team 0, squad 2, group 7, gar_dolg_blokpost_7
team 0, squad 2, group 7, gar_dolg_blokpost_8
team 0, squad 2, group 0, gar_hellcar
team 0, squad 2, group 0, gar_hellcar_group_1
team 0, squad 2, group 0, gar_hellcar_group_2
team 0, squad 2, group 8, gar_seryi
team 0, squad 2, group 8, gar_seryi_drug2
team 0, squad 2, group 8, gar_seryi_drug3
team 0, squad 2, group 15, gar_sniper_bandit
team 0, squad 0, group 0, gar_stalker
team 0, squad 0, group 0, gar_stalker_0000
team 0, squad 0, group 0, gar_stalker_0001
team 0, squad 0, group 0, gar_stalker_0002
team 0, squad 2, group 0, gar_stalker_0003
team 0, squad 0, group 0, gar_stalker_0004
team 0, squad 0, group 0, gar_stalker_0005
team 0, squad 0, group 0, gar_stalker_0006
team 0, squad 0, group 0, gar_stalker_0007
team 0, squad 0, group 0, gar_stalker_0008
team 0, squad 0, group 0, gar_stalker_0009
team 0, squad 2, group 0, gar_wounded_bandit
importing alife objects from file alife_l03_agroprom.ltx...
team 0, squad 0, group 0, agr_boar
team 0, squad 0, group 0, agr_boar_0000
team 0, squad 0, group 0, agr_boar_0001
team 0, squad 0, group 0, agr_boar_0005
team 0, squad 0, group 0, agr_dog_normal
team 0, squad 0, group 0, agr_dog_normal_0000
team 11, squad 4, group 0, agr_dog_normal_0001
team 11, squad 4, group 0, agr_dog_normal_0002
team 2, squad 11, group 5, agr_dog_normal_0003
team 0, squad 0, group 0, agr_m_dog_e_0000
team 0, squad 0, group 0, agr_m_dog_e_0003
team 0, squad 0, group 0, agr_m_dog_e_0004
team 0, squad 0, group 0, agr_m_dog_e_0005
team 0, squad 0, group 0, agr_m_dog_e_0011
team 0, squad 0, group 0, agr_dog_weak
team 0, squad 0, group 0, agr_dog_weak_0000
team 2, squad 12, group 0, agr_flesh_normal
team 0, squad 0, group 0, agr_flesh_normal_0000
team 0, squad 0, group 0, agr_m_car
team 2, squad 11, group 0, agr_pseudodog_normal
team 2, squad 11, group 3, agr_pseudodog_normal_0001
team 0, squad 0, group 0, agr_pseudodog_weak
team 0, squad 0, group 0, agr_pseudodog_weak_0000
team 0, squad 3, group 22, agr_defector_stalker1
team 0, squad 3, group 2, agr_factory_assault_soldier1
team 0, squad 3, group 2, agr_factory_assault_soldier2
team 0, squad 3, group 2, agr_factory_assault_soldier3
team 0, squad 3, group 2, agr_factory_assault_soldier4
team 0, squad 3, group 2, agr_factory_assault_soldier5
team 0, squad 3, group 2, agr_factory_assault_soldier6
team 0, squad 3, group 2, agr_factory_assault_soldier7
team 0, squad 3, group 2, agr_factory_assault_soldier8
team 0, squad 3, group 1, agr_factory_defence_stalker1
team 0, squad 3, group 1, agr_factory_defence_stalker2
team 0, squad 3, group 1, agr_factory_defence_stalker3
team 0, squad 3, group 1, agr_factory_defence_stalker4
team 0, squad 3, group 1, agr_factory_defence_stalker5
team 0, squad 3, group 1, agr_factory_defence_stalker5_0000
team 0, squad 3, group 1, agr_factory_defence_stalker5_0001
team 0, squad 3, group 1, agr_factory_defence_stalker5_0002
team 0, squad 3, group 1, agr_factory_defence_stalker6
team 0, squad 2, group 1, agr_factory_hold_soldier1
team 0, squad 2, group 1, agr_factory_hold_soldier2
team 0, squad 2, group 1, agr_factory_hold_soldier3
team 0, squad 3, group 10, agr_factory_spetsnaz1
team 0, squad 3, group 10, agr_factory_spetsnaz2
team 0, squad 3, group 10, agr_factory_spetsnaz3
team 0, squad 3, group 10, agr_factory_spetsnaz4
team 0, squad 3, group 10, agr_factory_spetsnaz5
team 0, squad 3, group 10, agr_factory_spetsnaz6
team 0, squad 3, group 10, agr_factory_spetsnaz7
team 0, squad 3, group 10, agr_factory_spetsnaz8
team 0, squad 3, group 1, agr_krot
team 0, squad 0, group 0, agr_nii_commander
team 0, squad 0, group 0, agr_nii_plennik_guard1
team 0, squad 0, group 0, agr_nii_plennik_guard2
team 0, squad 0, group 0, agr_nii_plennik_stalker
team 0, squad 0, group 0, agr_nii_soldier1
team 0, squad 0, group 0, agr_nii_soldier10
team 0, squad 0, group 0, agr_nii_soldier16
team 0, squad 0, group 0, agr_nii_soldier17
team 0, squad 0, group 0, agr_nii_soldier2
team 0, squad 0, group 0, agr_nii_soldier3
team 0, squad 0, group 0, agr_nii_soldier4
team 0, squad 0, group 0, agr_nii_soldier5
team 0, squad 0, group 0, agr_nii_soldier7
team 0, squad 0, group 0, agr_nii_soldier8
team 0, squad 0, group 0, agr_nii_soldier9
team 0, squad 3, group 8, agr_ratcatcher
team 0, squad 3, group 20, agr_road_patrol_not_gul_1
team 0, squad 3, group 20, agr_road_patrol_not_gul_1_0000
team 0, squad 3, group 20, agr_road_patrol_not_gul_1_0001
team 0, squad 3, group 20, agr_road_patrol_not_gul_1_0002
team 0, squad 3, group 20, agr_road_patrol_soldier1
team 0, squad 3, group 20, agr_road_patrol_soldier_0000
team 0, squad 0, group 0, agr_stalker
team 0, squad 0, group 0, agr_stalker_0000
team 0, squad 0, group 0, agr_stalker_0001
team 0, squad 0, group 0, agr_stalker_0002
team 0, squad 0, group 0, agr_stalker_0003
team 0, squad 0, group 0, agr_stalker_0004
team 0, squad 0, group 0, agr_stalker_0005
team 0, squad 0, group 0, agr_stalker_0006
team 0, squad 0, group 0, agr_stalker_0007
team 0, squad 0, group 0, agr_stalker_0008
team 0, squad 0, group 0, agr_stalker_0009
team 0, squad 0, group 0, agr_stalker_0010
team 0, squad 3, group 7, agr_tower1_soldier
team 0, squad 3, group 7, agr_tower2_soldier
team 0, squad 3, group 7, agr_tower3_soldier
team 0, squad 3, group 20, agr_zastava1_soldier1
team 0, squad 3, group 20, agr_zastava1_soldier2
team 0, squad 3, group 20, agr_zastava2_soldier1
team 0, squad 3, group 20, agr_zastava2_soldier2
team 0, squad 3, group 20, agr_zastava2_soldier3
importing alife objects from file alife_l03u_agr_underground.ltx...
team 3, squad 5, group 1, kat2_m_controller_old_0000
team 0, squad 6, group 2, kat_m_bloodsucker_e
team 0, squad 4, group 2, kat_bandit
team 0, squad 4, group 2, kat_bandit_0000
team 0, squad 4, group 2, kat_bandit_0001
team 0, squad 4, group 2, kat_bandit_0002
team 0, squad 4, group 2, kat_bandit_0003
team 0, squad 4, group 2, kat_bandit_0004
team 0, squad 4, group 2, kat_bandit_0005
team 0, squad 4, group 2, kat_bandit_0006
team 0, squad 4, group 1, kat_soldier_0000
team 0, squad 4, group 1, kat_soldier_0001
team 0, squad 4, group 1, kat_soldier_0002
team 0, squad 4, group 1, kat_soldier_0006
team 0, squad 4, group 1, kat_soldier_0007
team 0, squad 4, group 1, kat_soldier_0008
team 0, squad 4, group 1, kat_soldier_0009
team 0, squad 4, group 1, kat_soldier_0010
team 0, squad 4, group 1, kat_soldier_0011
team 0, squad 4, group 1, kat_soldier_0012
team 0, squad 4, group 1, kat_soldier_0013
team 0, squad 0, group 0, kat_stalker
importing alife objects from file alife_l04_darkvalley.ltx...
team 0, squad 6, group 1, val_sos_bs
team 0, squad 0, group 0, val_dog_strong
team 4, squad 1, group 1, val_dog_weak_0000
team 4, squad 1, group 1, val_dog_weak
team 0, squad 3, group 3, val_flesh_normal
team 15, squad 6, group 1, val_bs_victim
team 0, squad 0, group 0, val_chase_car_0000
team 0, squad 0, group 0, val_chase_car_0001
team 0, squad 0, group 0, val_m_crow
team 0, squad 0, group 0, val_m_crow0000
team 0, squad 0, group 0, val_m_crow0001
team 0, squad 0, group 0, val_m_crow0002
team 0, squad 0, group 0, val_m_crow0003
team 0, squad 0, group 0, val_m_crow0004
team 0, squad 0, group 0, val_m_crow0005
team 0, squad 0, group 0, val_m_crow0006
team 0, squad 0, group 0, val_m_crow0007
team 0, squad 0, group 0, val_m_crow0008
team 0, squad 0, group 0, val_m_crow0009
team 0, squad 0, group 0, val_m_crow0010
team 0, squad 0, group 0, val_m_crow0011
team 0, squad 0, group 0, val_m_crow0012
team 0, squad 0, group 0, val_m_crow0013
team 0, squad 0, group 0, val_m_crow0014
team 0, squad 0, group 0, val_m_crow0015
team 0, squad 0, group 0, val_m_crow0016
team 0, squad 0, group 0, val_m_crow0017
team 0, squad 0, group 0, val_m_crow0018
team 0, squad 0, group 0, val_m_crow0019
team 0, squad 0, group 0, val_m_crow0020
team 0, squad 0, group 0, val_m_crow0021
team 0, squad 0, group 0, val_m_crow0022
team 0, squad 0, group 0, val_m_crow0023
team 0, squad 0, group 0, val_m_crow0024
team 0, squad 0, group 0, val_m_crow0025
team 0, squad 0, group 0, val_m_crow0026
team 0, squad 0, group 0, val_m_crow0027
team 0, squad 0, group 0, val_m_crow0028
team 0, squad 0, group 0, val_m_crow0029
team 0, squad 0, group 0, val_m_crow0030
team 0, squad 0, group 0, val_m_crow0031
team 0, squad 0, group 0, val_m_crow0032
team 0, squad 0, group 0, val_m_crow0033
team 0, squad 0, group 0, val_m_crow0034
team 0, squad 0, group 0, val_m_crow0035
team 0, squad 0, group 0, val_m_crow0036
team 0, squad 0, group 0, val_m_crow0037
team 0, squad 0, group 0, val_m_crow0038
team 0, squad 0, group 0, val_m_crow0039
team 0, squad 0, group 0, val_m_crow0040
team 0, squad 0, group 0, val_m_crow0041
team 0, squad 0, group 0, val_m_crow0042
team 0, squad 0, group 0, val_m_crow0043
team 0, squad 0, group 0, val_m_crow0044
team 0, squad 0, group 0, val_m_crow0045
team 0, squad 0, group 0, val_m_crow0046
team 0, squad 0, group 0, val_m_crow0047
team 0, squad 0, group 0, val_m_crow0048
team 0, squad 0, group 0, val_m_crow0049
team 0, squad 0, group 0, val_m_crow0050
team 0, squad 0, group 0, val_m_crow0051
team 0, squad 0, group 0, val_m_crow0052
team 0, squad 0, group 0, val_m_crow0053
team 0, squad 0, group 0, val_m_crow0054
team 0, squad 0, group 0, val_m_crow0055
team 0, squad 0, group 0, val_m_crow0056
team 0, squad 0, group 0, val_m_crow0057
team 0, squad 0, group 0, val_m_crow0058
team 0, squad 0, group 0, val_m_crow0059
team 0, squad 21, group 21, val_pseudodog_normal
team 0, squad 21, group 22, val_pseudodog_normal_0000
team 4, squad 6, group 3, bar_kvest_friend_of_barman_dead_bandit_near_pda
team 4, squad 6, group 3, bar_kvest_friend_of_barman_dead_stalker_near_pda
team 0, squad 0, group 0, sim_stalker_fraer
team 0, squad 6, group 4, val_bandit_rpg_dead
team 4, squad 6, group 1, val_bs_killer1
team 4, squad 6, group 1, val_bs_killer2
team 4, squad 6, group 2, val_death_bandir_last_request
team 4, squad 6, group 3, val_escort_bandit1_dead
team 4, squad 6, group 3, val_escort_bandit2_dead
team 4, squad 6, group 3, val_escort_bandit_halfdead
team 0, squad 6, group 2, val_escort_captive
team 0, squad 6, group 8, val_escort_guard1
team 0, squad 6, group 8, val_escort_guard2
team 0, squad 6, group 2, val_escort_nap1
team 2, squad 6, group 1, val_exit1_ambush_soldier1
team 2, squad 6, group 1, val_exit1_ambush_soldier2
team 2, squad 6, group 1, val_exit1_ambush_soldier3
team 2, squad 6, group 1, val_exit1_ambush_soldier4
team 0, squad 1, group 2, val_freedom_enemy_1
team 0, squad 1, group 2, val_freedom_enemy_2
team 0, squad 1, group 2, val_freedom_enemy_3
team 0, squad 1, group 2, val_freedom_enemy_4
team 0, squad 1, group 2, val_freedom_enemy_5
team 0, squad 1, group 2, val_freedom_enemy_6
team 0, squad 1, group 2, val_freedom_enemy_commander
team 0, squad 0, group 0, val_kocherga
team 4, squad 6, group 2, val_lager_bandit01
team 4, squad 6, group 2, val_lager_bandit02
team 4, squad 6, group 2, val_lager_bandit03
team 4, squad 6, group 2, val_lager_bandit04
team 4, squad 6, group 2, val_lager_bandit05
team 4, squad 6, group 2, val_lager_bandit06
team 4, squad 6, group 2, val_lager_bandit07
team 4, squad 6, group 2, val_lager_bandit08
team 4, squad 6, group 2, val_lager_bandit09
team 4, squad 6, group 2, val_lager_bandit10
team 4, squad 6, group 2, val_lager_bandit11
team 4, squad 6, group 2, val_lager_bandit12
team 4, squad 6, group 2, val_lager_bandit13
team 4, squad 6, group 2, val_lager_bandit14
team 4, squad 6, group 2, val_lager_bandit15
team 4, squad 6, group 2, val_lager_bandit16
team 4, squad 6, group 2, val_lager_bandit16_0000
team 4, squad 6, group 2, val_lager_bandit17
team 4, squad 6, group 2, val_lager_bandit18
team 4, squad 6, group 2, val_lager_bandit19
team 4, squad 6, group 2, val_lager_bandit20
team 4, squad 6, group 2, val_lager_bandits_bodyguard1
team 4, squad 6, group 2, val_lager_bandits_bodyguard2
team 4, squad 6, group 2, val_lager_bandits_bodyguard3
team 4, squad 6, group 2, val_lager_bandits_borov
team 0, squad 6, group 1, val_prisoner_captive
team 0, squad 6, group 15, val_raid_g01_soldier_0000
team 0, squad 6, group 15, val_raid_g01_soldier_0001
team 0, squad 6, group 15, val_raid_g01_soldier_0002
team 0, squad 6, group 1, val_raid_g02_soldier_0004
team 0, squad 6, group 1, val_raid_g02_soldier_0005
team 0, squad 6, group 1, val_raid_g02_soldier_0006
team 0, squad 6, group 1, val_raid_g03_soldier_0008
team 0, squad 6, group 1, val_raid_g03_soldier_0009
team 0, squad 6, group 15, val_raid_g04_soldier_0001
team 0, squad 6, group 15, val_raid_g04_soldier_0002
team 0, squad 6, group 2, val_raid_g05_soldier_0010
team 0, squad 6, group 2, val_raid_g05_soldier_0011
team 0, squad 6, group 2, val_raid_g06_soldier_0012
team 0, squad 6, group 2, val_raid_g06_soldier_0013
team 0, squad 6, group 2, val_raid_g07_soldier_0014
team 0, squad 6, group 2, val_raid_g07_soldier_0015
team 0, squad 6, group 2, val_raid_g08_soldier_0016
team 0, squad 6, group 2, val_raid_g08_soldier_0017
team 0, squad 6, group 2, val_raid_g09_soldier_0018
team 0, squad 6, group 2, val_raid_g09_soldier_0019
team 0, squad 6, group 2, val_raid_g09_soldier_0020
team 0, squad 6, group 15, val_raid_g10_soldier_0001
team 0, squad 6, group 1, val_rob_guard1
team 0, squad 6, group 1, val_rob_guard2
team 0, squad 6, group 1, val_rob_helper1
team 0, squad 6, group 1, val_rob_helper2
team 0, squad 6, group 1, val_rob_leader
team 0, squad 6, group 2, val_sacrifice_guard1
team 0, squad 6, group 2, val_sacrifice_guard2
team 4, squad 6, group 2, val_sacrifice_tunnel_bandit
team 5, squad 6, group 2, val_sacrifice_victim
team 0, squad 6, group 1, val_sos_dead1
team 0, squad 6, group 1, val_sos_dead2
team 0, squad 6, group 1, val_sos_wounded
team 2, squad 6, group 1, val_stalker
team 2, squad 6, group 1, val_stalker_0000
team 0, squad 1, group 2, val_stalker_ferma_quest_last_request_orlov
team 4, squad 6, group 2, val_unknown_stalker_quest_last_request
team 4, squad 6, group 2, val_watchtower1_bandit_sniper
team 4, squad 6, group 2, val_watchtower2_bandit_guard
team 4, squad 6, group 2, val_watchtower3_bandit_guard
team 4, squad 6, group 2, val_watchtower4_bandit_guard
team 4, squad 6, group 2, val_watchtower5_bandit_guard
team 0, squad 6, group 16, val_x18_exit_base_bandit_0000
team 0, squad 6, group 16, val_x18_exit_base_bandit_0001
team 0, squad 6, group 16, val_x18_exit_base_bandit_0002
team 0, squad 6, group 16, val_x18_exit_base_bandit_0003
team 0, squad 6, group 16, val_x18_exit_base_bandit_0004
team 0, squad 6, group 16, val_x18_exit_base_bandit_0005
team 0, squad 6, group 16, val_x18_exit_base_bandit_0006
importing alife objects from file alife_l04u_labx18.ltx...
team 0, squad 0, group 0, dar_gigant_normal
team 0, squad 0, group 0, dar_m_poltergeist_normal_flame_0000
team 0, squad 0, group 0, dar_m_poltergeist_normal_flame
team 0, squad 0, group 0, dar_m_poltergeist_normal_flame_0001
team 0, squad 0, group 0, dar_m_poltergeist_normal_flame_0002
team 0, squad 0, group 0, dar_m_poltergeist_normal_tele
team 0, squad 0, group 0, dar_m_poltergeist_normal_tele_0000
team 5, squad 5, group 4, dar_snork_strong_0000
team 5, squad 5, group 9, dar_snork_strong
team 0, squad 0, group 0, dar_stalker
team 0, squad 0, group 0, dar_stalker0000
team 0, squad 0, group 0, dar_stalker0000_0000
team 0, squad 0, group 0, dar_stalker0001
team 0, squad 0, group 0, dar_stalker_0000
team 0, squad 0, group 0, dar_stalker_0002
team 0, squad 0, group 0, dar_stalker_0004
team 0, squad 0, group 0, dar_stalker_0005
importing alife objects from file alife_l05_bar.ltx...
team 0, squad 0, group 0, bloodsucker_gorb_killer
team 0, squad 0, group 0, bar_barman
team 0, squad 0, group 0, bar_m_crow
team 0, squad 0, group 0, bar_m_crow_0000
team 0, squad 0, group 0, bar_m_crow_0001
team 0, squad 0, group 0, bar_m_crow_0002
team 0, squad 0, group 0, bar_m_crow_0003
team 0, squad 0, group 0, bar_m_crow_0004
team 0, squad 0, group 0, bar_m_crow_0005
team 0, squad 0, group 0, bar_m_crow_0006
team 0, squad 0, group 0, bar_m_crow_0007
team 0, squad 0, group 0, bar_m_crow_0008
team 0, squad 0, group 0, bar_m_crow_0009
team 0, squad 0, group 0, bar_m_crow_0010
team 0, squad 0, group 0, bar_m_crow_0011
team 0, squad 0, group 0, bar_m_crow_0012
team 0, squad 0, group 0, bar_m_crow_0013
team 0, squad 0, group 0, bar_m_crow_0014
team 0, squad 0, group 0, bar_m_crow_0015
team 0, squad 5, group 1, bar_m_dog_e_0000
team 0, squad 5, group 1, bar_m_dog_e_0001
team 0, squad 5, group 1, bar_m_dog_e_0003
team 0, squad 5, group 1, bar_m_dog_e_0005
team 0, squad 5, group 1, bar_m_dog_e_0007
team 0, squad 5, group 1, bar_m_dog_e_0009
team 0, squad 5, group 1, bar_m_dog_e_0010
team 0, squad 5, group 1, bar_m_dog_e_0011
team 0, squad 5, group 1, bar_m_dog_e_0012
team 0, squad 5, group 1, bar_m_dog_e_0013
team 0, squad 5, group 1, bar_m_dog_e_0014
team 0, squad 5, group 1, bar_m_dog_e_0015
team 0, squad 5, group 1, bar_m_dog_e_0016
team 0, squad 5, group 1, bar_m_dog_e_0017
team 0, squad 5, group 1, bar_m_dog_e_0018
team 0, squad 5, group 1, bar_m_dog_e_0019
team 0, squad 5, group 1, bar_m_dog_e_0020
team 0, squad 5, group 1, bar_m_dog_e_0021
team 0, squad 5, group 1, bar_m_pseudodog_e
team 0, squad 5, group 1, bar_m_pseudodog_e_0000
team 0, squad 5, group 1, bar_m_pseudodog_e_0001
team 0, squad 5, group 4, bar_dolg_petrenko
team 0, squad 1, group 2, izgoy_first_patient
team 0, squad 1, group 2, izgoy_lider
team 0, squad 1, group 2, izgoy_pomoshnik
team 0, squad 1, group 2, izgoy_second_patient
team 0, squad 5, group 0, bar_angar_zoneguard
team 0, squad 0, group 0, bar_arena_man
team 0, squad 5, group 27, bar_bar_drunk_dolg
team 0, squad 5, group 20, bar_bar_guard
team 0, squad 5, group 20, bar_bar_guard_2
team 0, squad 5, group 28, bar_bar_lisiy
team 0, squad 5, group 0, bar_bar_osvedomitel
team 0, squad 8, group 8, bar_bar_stalker
team 0, squad 5, group 27, bar_bar_visitor_hunter
team 0, squad 5, group 27, bar_bar_visitors_1_2
team 0, squad 5, group 27, bar_bar_visitors_2_1
team 0, squad 5, group 28, bar_bar_visitors_3_2
team 0, squad 5, group 28, bar_bar_visitors_3_3
team 0, squad 5, group 28, bar_bar_visitors_3_4
team 0, squad 5, group 4, bar_dolg_bunker_0001
team 0, squad 5, group 4, bar_dolg_bunker_0002
team 0, squad 5, group 4, bar_dolg_bunker_1
team 0, squad 5, group 4, bar_dolg_bunker_2
team 0, squad 5, group 4, bar_dolg_bunker_3
team 0, squad 5, group 4, bar_dolg_bunker_4
team 0, squad 5, group 4, bar_dolg_bunker_5
team 0, squad 5, group 4, bar_dolg_ivancov
team 0, squad 5, group 4, bar_dolg_regular_1
team 0, squad 5, group 4, bar_dolg_regular_4
team 0, squad 5, group 4, bar_dolg_regular_5
team 0, squad 5, group 4, bar_dolg_veteran_2
team 0, squad 5, group 4, bar_dolg_veteran_3
team 0, squad 1, group 2, bar_guider
team 0, squad 8, group 8, bar_house_stalker
team 0, squad 1, group 0, bar_kulg_agent
team 0, squad 0, group 0, bar_stalker
team 0, squad 0, group 0, bar_stalker_0000
team 0, squad 0, group 0, bar_stalker_0001
team 0, squad 0, group 0, bar_stalker_0004
team 5, squad 8, group 3, bar_stalker_0005
team 5, squad 8, group 3, bar_stalker_0006
team 5, squad 8, group 3, bar_stalker_0007
team 5, squad 8, group 3, bar_stalker_0008
team 5, squad 8, group 3, bar_stalker_0009
team 5, squad 8, group 3, bar_stalker_0010
team 5, squad 8, group 3, bar_stalker_0011
team 5, squad 8, group 7, bar_stalker_0012
team 5, squad 8, group 7, bar_stalker_0013
team 5, squad 8, group 3, bar_stalker_0014
team 5, squad 8, group 3, bar_stalker_0015
team 5, squad 8, group 3, bar_stalker_0016
team 5, squad 8, group 3, bar_stalker_0017
team 5, squad 8, group 3, bar_stalker_0018
team 5, squad 8, group 3, bar_stalker_0019
team 5, squad 8, group 3, bar_stalker_0020
team 5, squad 8, group 3, bar_stalker_0021
team 5, squad 8, group 3, bar_stalker_0022
team 5, squad 8, group 3, bar_stalker_0023
team 5, squad 8, group 3, bar_stalker_0024
team 5, squad 8, group 3, bar_stalker_0025
team 5, squad 8, group 3, bar_stalker_0026
team 0, squad 0, group 0, bar_visitor_10
team 0, squad 0, group 0, bar_visitor_12
team 0, squad 0, group 0, bar_visitor_13
team 0, squad 0, group 0, bar_visitor_2
team 0, squad 0, group 0, bar_visitor_4
team 0, squad 0, group 0, bar_visitor_7
team 0, squad 0, group 0, bar_visitor_8
team 0, squad 5, group 9, bar_zastava_2_square_1_guard_2
team 0, squad 5, group 9, bar_zastava_2_square_1_guard_4
team 0, squad 5, group 9, bar_zastava_2_square_1_guard_6
team 0, squad 5, group 8, bar_zastava_commander_1
team 0, squad 5, group 8, bar_zastava_guard_1
team 0, squad 5, group 8, bar_zastava_guard_2
team 0, squad 5, group 8, bar_zastava_guard_3
team 0, squad 0, group 0, sim_stalker_gusarov
team 0, squad 0, group 0, sim_stalker_prapor
team 0, squad 0, group 0, sim_stalker_umnik
team 0, squad 5, group 4, bar_dolg_leader
team 0, squad 5, group 27, stalker_hvost
importing alife objects from file alife_l06_rostok.ltx...
team 0, squad 0, group 0, rostok_bloodsucker_strong
team 0, squad 0, group 0, rostok_dog_normal
team 0, squad 0, group 0, rostok_dog_normal_0000
team 0, squad 0, group 0, rostok_dog_normal_0001
team 0, squad 0, group 0, rostok_dog_normal_0002
team 0, squad 0, group 0, rostok_dog_strong_0000
team 0, squad 0, group 0, rostok_dog_strong_0001
team 0, squad 0, group 0, rostok_dog_strong_0002
team 0, squad 0, group 0, rostok_dog_dead_1
team 0, squad 0, group 0, rostok_dog_dead_2
team 0, squad 0, group 0, rostok_m_poltergeist_tele_outdoor
team 0, squad 0, group 0, rostok_m_poltergeist_tele_outdoor_0000
team 0, squad 0, group 0, rostok_m_tushkano_e_0024
team 0, squad 0, group 0, rostok_pseudodog_weak
team 0, squad 5, group 7, bar_ambush_killer_01
team 0, squad 5, group 7, bar_ambush_killer_02
team 6, squad 6, group 1, bar_ambush_killer_03
team 0, squad 5, group 7, bar_ambush_killer_04
team 0, squad 6, group 8, bar_ambush_killer_05
team 0, squad 6, group 8, bar_ambush_killer_07
team 0, squad 6, group 8, bar_ambush_killer_09
team 0, squad 5, group 3, bar_ecolog_crush_1
team 0, squad 5, group 3, bar_ecolog_crush_2
team 0, squad 5, group 3, bar_ecolog_crush_3
team 0, squad 5, group 3, bar_ecolog_crush_4
team 0, squad 5, group 3, bar_ecolog_crush_dead
team 0, squad 5, group 3, bar_ecolog_crush_dead_0000
team 0, squad 5, group 3, bar_ecolog_crush_dead_0001
team 0, squad 5, group 3, bar_ecolog_crush_dead_0002
team 0, squad 5, group 3, bar_ecolog_crush_dead_0003
team 0, squad 5, group 3, bar_ecolog_professor
team 0, squad 5, group 7, bar_freedom_attacker_0000
team 0, squad 5, group 7, bar_freedom_attacker_0001
team 0, squad 5, group 7, bar_freedom_attacker_0002
team 0, squad 5, group 7, bar_freedom_attacker_0003
team 0, squad 5, group 7, bar_freedom_attacker_1
team 0, squad 5, group 7, bar_freedom_attacker_10
team 0, squad 5, group 7, bar_freedom_attacker_11
team 0, squad 5, group 7, bar_freedom_attacker_12
team 0, squad 5, group 7, bar_freedom_attacker_2
team 0, squad 5, group 7, bar_freedom_attacker_3
team 0, squad 5, group 7, bar_freedom_attacker_4
team 0, squad 5, group 7, bar_freedom_attacker_5
team 0, squad 5, group 7, bar_freedom_attacker_6
team 0, squad 5, group 7, bar_freedom_attacker_7
team 0, squad 5, group 7, bar_freedom_attacker_8
team 0, squad 5, group 7, bar_freedom_attacker_9
team 0, squad 5, group 7, bar_freedom_attacker_commander
team 0, squad 5, group 7, bar_spy_killer_2
team 0, squad 5, group 7, bar_spy_killers_1
team 0, squad 5, group 7, bar_spy_killers_2
team 0, squad 0, group 0, rostok_dead_stalker_0000
team 0, squad 0, group 0, rostok_dead_stalker_01
team 0, squad 0, group 0, rostok_dead_stalker_02
team 0, squad 0, group 0, rostok_dead_stalker_03
team 0, squad 5, group 0, rostok_stalker
team 0, squad 0, group 0, rostok_stalker_0000
team 6, squad 6, group 1, rostok_stalker_0001
team 6, squad 6, group 1, rostok_stalker_0002
team 6, squad 6, group 1, rostok_stalker_0003
team 6, squad 6, group 1, rostok_stalker_0004
team 0, squad 0, group 0, rostok_stalker_zombied
team 0, squad 0, group 0, rostok_stalker_zombied_0000
team 0, squad 0, group 0, rostok_stalker_zombied_0001
team 0, squad 0, group 0, rostok_stalker_zombied_0003
team 0, squad 0, group 0, rostok_stalker_zombied_0004
team 0, squad 0, group 0, rostok_stalker_zombied_0005
team 0, squad 0, group 0, rostok_stalker_zombied_0006
importing alife objects from file alife_l08_yantar.ltx...
team 8, squad 21, group 0, yantar_m_gigant_e_0000
team 0, squad 1, group 2, yan_soldier
team 0, squad 0, group 0, factory_m_car
team 0, squad 0, group 0, factory_m_snork_e_0000
team 0, squad 0, group 0, factory_m_snork_e_0001
team 0, squad 0, group 0, factory_m_snork_e_0002
team 0, squad 0, group 0, factory_m_snork_e_0004
team 0, squad 0, group 0, factory_m_snork_e_0005
team 0, squad 0, group 0, factory_m_snork_e_0013
team 0, squad 0, group 0, yan_home_snork_0000
team 0, squad 0, group 0, yan_home_snork_0001
team 0, squad 0, group 0, yan_home_snork_0002
team 0, squad 0, group 0, yan_home_snork_0003
team 0, squad 0, group 0, yan_home_snork_0004
team 0, squad 0, group 0, yan_home_snork_0005
team 0, squad 0, group 0, yan_home_snork_0006
team 0, squad 0, group 0, yan_home_snork_0009
team 0, squad 0, group 0, yan_home_snork_0011
team 0, squad 0, group 0, yan_home_snork_0017
team 0, squad 0, group 0, yan_home_snork_0019
team 0, squad 0, group 0, yan_home_snork_0020
team 0, squad 0, group 0, yan_home_snork_01
team 0, squad 0, group 0, yan_jump_snork_0009
team 0, squad 0, group 0, yan_jump_snork_1_0012
team 0, squad 0, group 0, yan_jump_snork_1_03
team 0, squad 0, group 0, yan_jump_snork_2_001
team 0, squad 0, group 0, yan_jump_snork_4_0001
team 0, squad 0, group 0, yan_jump_snork_5_0009
team 0, squad 0, group 0, yan_jump_snork_5_0011
team 0, squad 0, group 0, yan_jump_snork_6_001
team 0, squad 0, group 0, yan_jump_snork_7_0007
team 0, squad 0, group 0, yan_jump_snork_7_0008
team 0, squad 1, group 0, yan_ecolog_preobr2
team 8, squad 8, group 8, yan_scientist_help
team 0, squad 0, group 0, yan_specnaz_dead
team 0, squad 0, group 0, yan_stalker
team 0, squad 1, group 2, yan_zombied_chuk
team 0, squad 1, group 2, yan_zombied_chuk
team 0, squad 1, group 2, yan_figa
team 0, squad 0, group 0, yantar_dead_scientist_01
team 0, squad 1, group 2, yantar_guider
team 8, squad 8, group 2, yantar_semenov
team 8, squad 8, group 1, yantar_ecolog_general
team 8, squad 6, group 2, yantar_gulag_zombies_0000
team 8, squad 6, group 2, yantar_gulag_zombies_0002
team 0, squad 0, group 0, yantar_gulag_zombies_01
team 0, squad 0, group 0, yantar_gulag_zombies_03
team 0, squad 0, group 0, yantar_gulag_zombies_05
team 8, squad 0, group 0, yantar_stalker_zombied_0000
team 8, squad 0, group 0, yantar_stalker_zombied_0001
team 8, squad 0, group 0, yantar_stalker_zombied_0002
team 8, squad 0, group 0, yantar_stalker_zombied_0003
team 8, squad 0, group 0, yantar_stalker_zombied_0004
team 8, squad 0, group 0, yantar_stalker_zombied_0005
team 8, squad 0, group 4, yantar_stalker_zombied_0006
team 8, squad 5, group 0, yantar_stalker_zombied_0007
team 8, squad 5, group 0, yantar_stalker_zombied_0008
team 8, squad 0, group 0, yantar_stalker_zombied_0009
team 8, squad 0, group 0, yantar_stalker_zombied_0010
team 8, squad 0, group 0, yantar_stalker_zombied_0011
team 8, squad 0, group 4, yantar_stalker_zombied_0012
team 8, squad 2, group 0, yantar_stalker_zombied_0013
team 8, squad 0, group 0, yantar_stalker_zombied_0014
team 8, squad 2, group 0, yantar_stalker_zombied_0015
team 8, squad 6, group 0, yantar_stalker_zombied_0016
team 8, squad 0, group 4, yantar_stalker_zombied_0017
team 8, squad 0, group 4, yantar_stalker_zombied_0018
team 8, squad 0, group 4, yantar_stalker_zombied_0019
team 8, squad 0, group 4, yantar_stalker_zombied_0020
team 8, squad 0, group 0, yantar_stalker_zombied_0021
team 8, squad 6, group 0, yantar_stalker_zombied_0022
team 8, squad 2, group 0, yantar_stalker_zombied_0023
team 8, squad 2, group 0, yantar_stalker_zombied_0024
team 8, squad 2, group 0, yantar_stalker_zombied_0025
team 8, squad 2, group 0, yantar_stalker_zombied_0026
team 8, squad 2, group 0, yantar_stalker_zombied_0027
team 8, squad 0, group 4, yantar_stalker_zombied_0028
team 8, squad 2, group 0, yantar_stalker_zombied_0029
team 8, squad 2, group 0, yantar_stalker_zombied_0030
team 8, squad 2, group 0, yantar_stalker_zombied_0031
team 8, squad 6, group 0, yantar_stalker_zombied_0032
team 8, squad 2, group 0, yantar_stalker_zombied_0033
team 8, squad 0, group 4, yantar_stalker_zombied_0034
team 8, squad 0, group 4, yantar_stalker_zombied_0035
team 8, squad 0, group 4, yantar_stalker_zombied_0036
team 8, squad 0, group 4, yantar_stalker_zombied_0037
team 8, squad 2, group 0, yantar_stalker_zombied_0043
team 8, squad 5, group 0, yantar_stalker_zombied_0044
team 8, squad 3, group 0, yantar_stalker_zombied_0046
team 8, squad 5, group 0, yantar_stalker_zombied_0049
importing alife objects from file alife_l08u_brainlab.ltx...
team 0, squad 0, group 0, x16_m_controller_e
team 0, squad 7, group 7, x16_home_snork_0000
team 0, squad 0, group 0, x16_snork_normal_0001
team 0, squad 0, group 0, x16_snork_normal_0009
team 0, squad 0, group 0, x16_snork_normal_0012
team 0, squad 0, group 0, x16_home_snork_0002
team 0, squad 0, group 0, x16_home_snork_0013
team 0, squad 1, group 0, x16_gribnik
team 0, squad 1, group 0, x16_leshyi
team 0, squad 0, group 0, x16_stalker_ghost
team 0, squad 0, group 0, x16_exozombied
team 8, squad 1, group 4, x16_exozombied_0000
team 0, squad 0, group 0, x16_stalker_zombied
team 0, squad 0, group 0, x16_stalker_zombied_0000
team 0, squad 0, group 0, x16_stalker_zombied_0001
team 0, squad 0, group 0, x16_stalker_zombied_0002
team 0, squad 0, group 0, x16_stalker_zombied_0003
team 0, squad 0, group 0, x16_zombied_0000
team 8, squad 1, group 9, x16_zombied_0001
team 8, squad 1, group 7, x16_zombied_0003
team 0, squad 0, group 0, x16_zombied_0004
team 0, squad 0, group 0, x16_zombied_0005
team 0, squad 0, group 0, x16_zombied_0007
team 8, squad 1, group 7, x16_zombied_0009
team 0, squad 0, group 0, x16_zombied_0013
team 0, squad 0, group 0, x16_zombied_0017
team 0, squad 0, group 0, x16_zombied_0018
team 0, squad 0, group 0, x16_zombied_0019
team 0, squad 0, group 0, x16_zombied_0021
team 8, squad 1, group 9, x16_zombied_0027
team 8, squad 1, group 9, x16_zombied_0028
team 8, squad 1, group 5, x16_zombied_stalker_0001
team 0, squad 0, group 0, factory_zombie_strong_0013
team 0, squad 0, group 0, factory_zombie_strong_0014
team 0, squad 0, group 0, factory_zombie_strong_0015
team 0, squad 0, group 0, factory_zombie_strong_0016
team 0, squad 0, group 0, factory_zombie_strong_0017
importing alife objects from file alife_l07_military.ltx...
team 0, squad 0, group 0, mil_bloodsucker_normal
team 9, squad 2, group 4, mil_m_bloodsucker_normal_0000
team 0, squad 0, group 0, mil_boar_normal
team 0, squad 0, group 0, mil_boar_strong
team 0, squad 0, group 0, mil_boar_strong_0000
team 0, squad 0, group 0, mil_boar_strong_0002
team 0, squad 0, group 0, mil_boar_strong_0003
team 9, squad 2, group 1, mil_m_bloodsucker_e
team 9, squad 2, group 2, mil_m_bloodsucker_e_0000
team 9, squad 2, group 3, mil_m_bloodsucker_e_0001
team 0, squad 0, group 0, mil_m_crow
team 0, squad 0, group 0, mil_m_crow0000
team 0, squad 0, group 0, mil_m_crow0001
team 0, squad 0, group 0, mil_m_crow0002
team 0, squad 0, group 0, mil_m_crow0003
team 0, squad 0, group 0, mil_m_crow0004
team 0, squad 0, group 0, mil_m_crow0005
team 0, squad 0, group 0, mil_m_crow0006
team 0, squad 0, group 0, mil_m_crow0007
team 0, squad 0, group 0, mil_m_crow0008
team 0, squad 0, group 0, mil_m_crow0009
team 0, squad 0, group 0, mil_m_crow0010
team 0, squad 0, group 0, mil_m_crow0011
team 0, squad 0, group 0, mil_m_crow0012
team 0, squad 0, group 0, mil_m_crow0013
team 0, squad 0, group 0, mil_m_crow0014
team 0, squad 0, group 0, mil_m_crow0015
team 0, squad 0, group 0, mil_m_crow0016
team 0, squad 0, group 0, mil_m_crow0017
team 0, squad 0, group 0, mil_m_crow0018
team 0, squad 0, group 0, mil_m_crow0019
team 0, squad 0, group 0, mil_m_crow0020
team 0, squad 0, group 0, mil_m_crow0021
team 0, squad 0, group 0, mil_m_crow0022
team 0, squad 0, group 0, mil_m_crow0023
team 0, squad 0, group 0, mil_m_crow0024
team 0, squad 0, group 0, mil_m_crow0025
team 0, squad 0, group 0, mil_m_crow0026
team 0, squad 0, group 0, mil_m_crow0027
team 0, squad 0, group 0, mil_m_crow0028
team 0, squad 0, group 0, mil_m_crow0029
team 0, squad 0, group 0, mil_m_crow0030
team 0, squad 0, group 0, mil_m_crow0031
team 0, squad 0, group 0, mil_m_crow0032
team 0, squad 0, group 0, mil_m_crow0033
team 0, squad 0, group 0, mil_m_crow0034
team 0, squad 0, group 0, mil_m_crow0035
team 0, squad 0, group 0, mil_pseudodog_normal
team 0, squad 0, group 0, mil_pseudodog_strong
team 0, squad 0, group 0, mil_pseudodog_strong_0000
team 0, squad 0, group 0, mil_pseudodog_strong_0001
team 0, squad 0, group 0, mil_ara
team 0, squad 0, group 0, mil_ara_guard1
team 0, squad 0, group 0, mil_ara_guard2
team 0, squad 0, group 0, mil_ara_guard3
team 11, squad 7, group 4, mil_blockpost_freedomstalker001
team 2, squad 5, group 5, mil_dolg_stalker0000
team 2, squad 5, group 5, mil_dolg_stalker0001
team 2, squad 5, group 5, mil_dolg_stalker0002
team 2, squad 5, group 5, mil_dolg_stalker0003
team 2, squad 5, group 5, mil_dolg_stalker0004
team 2, squad 5, group 5, mil_dolg_stalker0006
team 2, squad 5, group 5, mil_dolg_stalker0006_0000
team 2, squad 5, group 5, mil_dolg_stalker0007
team 11, squad 9, group 0, mil_freedom_member0001
team 11, squad 7, group 0, mil_freedom_member0002
team 11, squad 7, group 0, mil_freedom_member0005
team 11, squad 7, group 0, mil_freedom_member0009
team 11, squad 7, group 0, mil_freedom_member0010
team 11, squad 7, group 0, mil_freedom_member0018
team 11, squad 7, group 0, mil_freedom_member0019
team 11, squad 7, group 0, mil_freedom_member0024
team 11, squad 7, group 0, mil_freedom_member0025
team 11, squad 7, group 0, mil_freedom_member0026
team 1, squad 7, group 0, mil_freedom_stalker0004
team 0, squad 7, group 0, mil_freedom_stalker0010
team 0, squad 7, group 0, mil_freedom_stalker0026
team 13, squad 13, group 13, mil_patrol_stalker0013
team 13, squad 13, group 13, mil_patrol_stalker0014
team 13, squad 13, group 13, mil_patrol_stalker_0000
team 0, squad 0, group 0, mil_stalker
team 0, squad 0, group 0, mil_stalker0012
team 0, squad 0, group 0, mil_stalker0023
team 0, squad 0, group 0, mil_stalker0024
team 0, squad 0, group 0, mil_stalker0025
team 0, squad 0, group 0, mil_stalker_0000
team 0, squad 0, group 0, mil_stalker_0001
team 0, squad 0, group 0, mil_stalker_0002
team 0, squad 0, group 0, mil_stalker_0003
team 0, squad 0, group 0, mil_stalker_0004
team 0, squad 0, group 0, sim_stalker_master_chuchelo
team 0, squad 0, group 0, sim_stalker_master_diador
team 0, squad 0, group 0, sim_stalker_master_master
team 0, squad 0, group 0, sim_stalker_prut
team 0, squad 0, group 0, mil_stalker_monolith_0000_w1
team 0, squad 0, group 0, mil_stalker_monolith_0003_w2
team 0, squad 0, group 0, mil_stalker_monolith_0004_w2
team 0, squad 0, group 0, mil_stalker_monolith_0006_w1
team 0, squad 0, group 0, mil_stalker_monolith_0007_w1
team 0, squad 0, group 0, mil_stalker_monolith_0008_w1
team 0, squad 0, group 0, mil_stalker_monolith_0009_w2
team 0, squad 0, group 0, mil_stalker_monolith_0010_w2
team 0, squad 0, group 0, mil_stalker_monolith_0012_w1
team 0, squad 0, group 0, mil_stalker_monolith_0015_w2
team 0, squad 0, group 0, mil_stalker_monolith_0016_w3
team 0, squad 0, group 0, mil_stalker_monolith_0017_w3
team 0, squad 0, group 0, mil_stalker_monolith_0018_w3
team 0, squad 0, group 0, mil_stalker_monolith_0019_w3
team 0, squad 0, group 0, mil_stalker_monolith_0020_w3
team 0, squad 0, group 0, mil_stalker_monolith_0021_w3
team 0, squad 0, group 0, mil_stalker_monolith_w1
team 11, squad 7, group 0, mil_freedom_member0012
team 11, squad 7, group 0, mil_freedom_member0021
team 0, squad 0, group 0, military_btr_freedom
importing alife objects from file alife_l10_radar.ltx...
team 0, squad 0, group 0, rad_bloodsucker_normal
team 0, squad 0, group 0, rad_attack_boar_1
team 0, squad 0, group 0, rad_attack_boar_2
team 0, squad 0, group 0, rad_attack_boar_3
team 0, squad 0, group 0, rad_attack_boar_4
team 0, squad 0, group 0, rad_attack_boar_5
team 0, squad 0, group 0, rad_attack_boar_glavar
team 0, squad 0, group 0, rad_attack_gigant_1
team 0, squad 0, group 0, rad_attack_gigant_2
team 0, squad 0, group 0, rad_attack_gigant
team 0, squad 0, group 0, rad_gigant_normal
team 0, squad 0, group 0, rad_tunnel_superkontroler
team 0, squad 0, group 0, rad_m_poltergeist_normal_tele
team 0, squad 0, group 0, rad_m_pseudodog_e_0001
team 0, squad 0, group 0, rad_m_pseudodog_e_0003
team 0, squad 0, group 0, rad_m_pseudodog_e_0005
team 0, squad 0, group 0, rad_psy_dog
team 0, squad 0, group 0, rad_snork_jumper_0001
team 0, squad 0, group 0, rad_snork_jumper_0003
team 0, squad 0, group 0, rad_snork_jumper_0004
team 0, squad 0, group 0, rad_snork_jumper_0005
team 0, squad 0, group 0, rad_snork_jumper_0008
team 0, squad 0, group 0, rad_snork_jumper_0009
team 0, squad 0, group 0, rad_snork_jumper_0010
team 0, squad 0, group 0, rad_snork_jumper_0015
team 0, squad 0, group 0, rad_snork_jumper_0016
team 0, squad 0, group 0, rad_snork_jumper_0019
team 0, squad 0, group 0, rad_attack_snork_1
team 0, squad 0, group 0, rad_attack_snork_2
team 0, squad 0, group 0, rad_attack_snork_3
team 0, squad 0, group 0, rad_attack_snork_4
team 0, squad 0, group 0, rad_attack_snork_5
team 0, squad 0, group 0, rad_attack_snork
team 0, squad 0, group 0, rad2_military
team 0, squad 0, group 0, rad2_stalker
team 0, squad 0, group 0, rad2_stalker_0000
team 0, squad 0, group 0, rad2_stalker_0001
team 0, squad 0, group 0, rad2_stalker_0002
team 0, squad 0, group 0, rad2_stalker_0003
team 0, squad 0, group 0, rad2_stalker_0004
team 0, squad 0, group 0, rad_antenna_specnazer
team 0, squad 0, group 0, rad_antenna_specnazer_0000
team 0, squad 0, group 0, rad_antenna_specnazer_0001
team 0, squad 0, group 0, rad_antenna_specnazer_0002
team 0, squad 0, group 0, rad_antenna_specnazer_0003
team 0, squad 0, group 0, rad_antenna_specnazer_0004
team 0, squad 0, group 0, rad_antenna_specnazer_0005
team 0, squad 0, group 0, rad_antenna_specnazer_0006
team 0, squad 1, group 2, filin
team 0, squad 1, group 2, rad_company_che
team 0, squad 1, group 2, rad_company_fidel
team 0, squad 1, group 2, rad_company_graf
team 0, squad 1, group 2, rad_company_markiz
team 0, squad 1, group 2, rad_company_mikluha
team 0, squad 1, group 2, rad_company_zahar
team 0, squad 16, group 19, rad_specnaz_antenna_0007
team 0, squad 16, group 19, rad_specnaz_antenna_0008
team 0, squad 16, group 19, rad_specnaz_antenna_0009
team 0, squad 0, group 0, rad_specnaz_antenna_0010
team 0, squad 16, group 13, rad_stalker_0005_dead
team 0, squad 16, group 13, rad_stalker_0006_dead_scientist
team 0, squad 16, group 13, rad_stalker_0007_dead_scientist
team 0, squad 16, group 13, rad_stalker_0008_dead_scientist
team 0, squad 16, group 13, rad_stalker_dead
team 0, squad 0, group 0, rad_stalker_dolg
team 0, squad 0, group 0, rad_stalker_dolg_0001
team 0, squad 0, group 0, rad_stalker_dolg_0003
team 0, squad 0, group 0, rad_stalker_dolg_0008
team 0, squad 0, group 0, rad_stalker_dolg_0009
team 0, squad 0, group 0, rad_stalker_dolg_0010
team 0, squad 0, group 0, rad_stalker_dolg_0011
team 0, squad 0, group 0, rad_stalker_svoboda_0000
team 0, squad 0, group 0, rad_stalker_svoboda_0002
team 0, squad 0, group 0, rad_stalker_svoboda_0004
team 0, squad 0, group 0, rad_stalker_svoboda_0005
team 0, squad 0, group 0, rad_stalker_svoboda_0006
team 0, squad 0, group 0, rad2_stalker_zombied
team 0, squad 0, group 0, rad2_stalker_zombied_0000
team 0, squad 0, group 0, rad2_stalker_zombied_0001
team 0, squad 0, group 0, rad_after_valley_walker1
team 0, squad 0, group 0, rad_after_valley_walker2
team 0, squad 0, group 0, rad_after_valley_walker3
team 0, squad 0, group 0, rad_after_valley_walker4
team 0, squad 0, group 0, rad_ambush1_kamp
team 0, squad 0, group 0, rad_ambush1_kamp_0000
team 0, squad 0, group 0, rad_ambush1_kamp_0001
team 0, squad 0, group 0, rad_ambush1_walker1
team 0, squad 16, group 14, rad_ambush1_walker_0001
team 0, squad 16, group 14, rad_ambush1_walker_0003
team 0, squad 0, group 0, rad_ambush3_walker
team 0, squad 0, group 0, rad_ambush3_walker2
team 0, squad 0, group 0, rad_ambush3_walker3
team 0, squad 0, group 0, rad_ambush3_walker4
team 0, squad 16, group 16, rad_ambush3_walker5
team 0, squad 0, group 0, rad_ambush3_walker6
team 0, squad 0, group 0, rad_ambush3_walker7
team 0, squad 0, group 0, rad_ambush3_walker8
team 0, squad 16, group 14, rad_ambush3_walker_0000
team 0, squad 0, group 0, rad_ambush3_walker_0001
team 0, squad 0, group 0, rad_ambush3_walker_0002
team 0, squad 0, group 0, rad_ambush3_walker_0003
team 0, squad 0, group 0, rad_ambush3_walker_0004
team 0, squad 0, group 0, rad_ambush3_walker_0005
team 0, squad 0, group 0, rad_antenna_camper1
team 0, squad 0, group 0, rad_antenna_camper2
team 0, squad 0, group 0, rad_antenna_camper3
team 0, squad 0, group 0, rad_antenna_monolither
team 0, squad 0, group 0, rad_antenna_monolither_0000
team 0, squad 0, group 0, rad_antenna_monolither_0001
team 0, squad 0, group 0, rad_antenna_monolither_0002
team 0, squad 0, group 0, rad_antenna_monolither_0003
team 0, squad 0, group 0, rad_antenna_monolither_0004
team 0, squad 0, group 0, rad_antenna_monolither_0005
team 0, squad 0, group 0, rad_antenna_monolither_0006
team 0, squad 16, group 17, rad_antenna_sniper1
team 0, squad 0, group 0, rad_antenna_sniper2
team 0, squad 16, group 17, rad_antenna_sniper3
team 0, squad 16, group 17, rad_antenna_sniper4
team 0, squad 16, group 17, rad_antenna_sniper5
team 0, squad 16, group 16, rad_codedoor_sniper
team 0, squad 16, group 16, rad_curve_road_high_guard1
team 0, squad 16, group 16, rad_curve_road_high_guard2
team 0, squad 16, group 16, rad_curve_road_low_guard
team 0, squad 16, group 16, rad_curve_road_mid_guard1
team 0, squad 16, group 16, rad_curve_road_mid_guard2
team 0, squad 0, group 0, rad_entrance_stalker_monolith1
team 0, squad 0, group 0, rad_entrance_stalker_monolith2
team 0, squad 0, group 0, rad_entrance_stalker_monolith3
team 0, squad 0, group 0, rad_entrance_stalker_monolith4
team 0, squad 16, group 17, rad_prip_road_guard1
team 0, squad 16, group 17, rad_prip_road_guard2
team 0, squad 16, group 17, rad_prip_road_kamper1
team 0, squad 16, group 17, rad_prip_road_kamper2
team 0, squad 16, group 17, rad_prip_road_kamper3
team 0, squad 16, group 17, rad_prip_road_patroler1
team 0, squad 16, group 14, rad_stalker_monolith
team 0, squad 0, group 0, rad_stalker_monolith_antenna_0004
team 0, squad 0, group 0, rad_stalker_monolith_antenna_0005
team 0, squad 0, group 0, rad_stalker_monolith_antenna_0009
team 0, squad 0, group 0, rad_stalker_monolith_antenna_0010
team 0, squad 0, group 0, rad_stalker_monolith_antenna_0011
team 0, squad 0, group 0, rad_stalker_monolith_antenna_0012
team 0, squad 0, group 0, rad_stalker_monolith_antenna_0013
team 0, squad 0, group 0, rad_stalker_monolith_antenna_0014
team 0, squad 0, group 0, rad_stalker_monolith_antenna_0015
team 0, squad 0, group 0, rad_stalker_monolith_antenna_0016
team 0, squad 0, group 0, rad_stalker_monolith_antenna_0017
team 0, squad 16, group 14, rad_tramplin_rpg_walker
team 0, squad 16, group 14, rad_tramplin_sniper
team 0, squad 0, group 0, rad_tramplin_walker3
team 0, squad 0, group 0, rad_tramplin_walker4
team 0, squad 0, group 0, rad_stalker_zombied
team 0, squad 0, group 0, rad_stalker_zombied_0000
team 0, squad 0, group 0, rad_stalker_zombied_0001
team 0, squad 0, group 0, rad_stalker_zombied_0002
team 0, squad 0, group 0, rad_stalker_zombied_0003
team 0, squad 0, group 0, rad_stalker_zombied_0004
team 0, squad 0, group 0, rad_stalker_zombied_0005
team 0, squad 0, group 0, rad_stalker_zombied_0006
team 0, squad 0, group 0, rad_stalker_zombied_0007
team 0, squad 0, group 0, rad_stalker_zombied_0008
team 0, squad 0, group 0, rad_stalker_zombied_0010
team 0, squad 0, group 0, rad_stalker_zombied_0011
team 0, squad 0, group 0, rad_stalker_zombied_0012
importing alife objects from file alife_l11_pripyat.ltx...
team 0, squad 0, group 0, pri_boar_strong
team 0, squad 0, group 0, pri_boar_strong_0000
team 0, squad 0, group 0, pri_boar_strong_0001
team 0, squad 0, group 0, pri_boar_strong_0002
team 0, squad 0, group 0, pri_boar_strong_0003
team 0, squad 0, group 0, pri_boar_strong_0004
team 0, squad 0, group 0, pri_boar_strong_0005
team 0, squad 18, group 1, pri_stadium_lair_gigant_0000
team 0, squad 18, group 1, pri_stadium_lair_gigant_0001
team 0, squad 18, group 2, pri_depot_psydog_0000
team 0, squad 0, group 0, pri_snork_strong
team 0, squad 0, group 0, pri_snork_strong_0000
team 0, squad 0, group 0, pri_snork_strong_0001
team 0, squad 18, group 4, pri_stadium_lair_snork_0001
team 0, squad 18, group 4, pri_stadium_lair_snork_0002
team 0, squad 18, group 1, pri_followers_bomber
team 0, squad 18, group 1, pri_followers_leader
team 0, squad 18, group 1, pri_followers_stalker1
team 0, squad 18, group 1, pri_followers_stalker2
team 0, squad 18, group 1, pri_followers_stalker3
team 0, squad 1, group 2, pri_guider
team 7, squad 18, group 5, pri_sideway_left_kamp_monolith1
team 7, squad 18, group 5, pri_sideway_left_kamp_monolith2
team 7, squad 18, group 5, pri_sideway_left_kamp_monolith3
team 7, squad 18, group 5, pri_sideway_left_kamp_monolith4
team 0, squad 18, group 7, pri_stadium_help_stalker1
team 0, squad 18, group 7, pri_stadium_help_stalker2
team 0, squad 0, group 0, pri_stalker
team 0, squad 18, group 10, pri_stalker_n_2
team 0, squad 0, group 0, pri_stalker_n_2_0000
team 0, squad 18, group 10, pri_stalker_n_2_0001
team 0, squad 18, group 10, pri_stalker_n_2_0002
team 0, squad 18, group 10, pri_stalker_n_2_0003
team 0, squad 18, group 10, pri_stalker_n_2_0004
team 0, squad 18, group 10, pri_stalker_n_2_0005
team 0, squad 18, group 10, pri_stalker_n_2_0006
team 7, squad 18, group 2, pri_wave2_monolith1_rsniper1
team 7, squad 18, group 2, pri_wave2_monolith2_wsniper1
team 7, squad 18, group 2, pri_wave2_monolith3_rsniper2
team 7, squad 18, group 2, pri_wave2_monolith4_wsniper2
team 0, squad 18, group 1, pri_wave4_monolith1_rsniper1
team 0, squad 18, group 2, pri_wave4_monolith2_wsniper1
team 0, squad 18, group 1, pri_wave4_monolith3_rsniper2
team 0, squad 18, group 2, pri_wave4_monolith4_wsniper2
team 0, squad 18, group 6, pri_wave6_monolith1_rsniper1
team 0, squad 18, group 6, pri_wave6_monolith2_wsniper1
team 7, squad 18, group 10, pri_corner_monolith1
team 7, squad 18, group 10, pri_corner_monolith2
team 7, squad 18, group 10, pri_corner_monolith3
team 7, squad 18, group 10, pri_monolith_01
team 7, squad 18, group 10, pri_monolith_02
team 7, squad 18, group 10, pri_monolith_03_sniper
team 7, squad 18, group 10, pri_monolith_04
team 7, squad 18, group 10, pri_monolith_05
team 7, squad 18, group 10, pri_monolith_06
team 7, squad 18, group 10, pri_monolith_07
team 7, squad 18, group 10, pri_monolith_08
team 7, squad 18, group 10, pri_monolith_09
team 7, squad 18, group 10, pri_monolith_10
team 7, squad 18, group 10, pri_monolith_11
team 7, squad 18, group 10, pri_monolith_12
team 7, squad 18, group 10, pri_monolith_13
team 7, squad 18, group 10, pri_monolith_14
team 7, squad 18, group 10, pri_monolith_15
team 7, squad 18, group 10, pri_monolith_16
team 7, squad 18, group 10, pri_monolith_17
team 7, squad 18, group 10, pri_monolith_18
team 7, squad 18, group 10, pri_monolith_19
team 7, squad 18, group 10, pri_monolith_20
team 7, squad 18, group 10, pri_monolith_21
team 7, squad 18, group 10, pri_monolith_22
team 7, squad 18, group 10, pri_monolith_23
team 7, squad 18, group 10, pri_monolith_24
team 7, squad 18, group 10, pri_monolith_25
team 7, squad 18, group 10, pri_monolith_26
team 7, squad 18, group 10, pri_monolith_27
team 0, squad 18, group 15, pri_monolith_28
team 0, squad 18, group 15, pri_monolith_29
team 0, squad 18, group 15, pri_monolith_30
team 0, squad 18, group 15, pri_monolith_31
team 0, squad 18, group 15, pri_monolith_32
team 0, squad 18, group 15, pri_monolith_33
team 7, squad 18, group 10, pri_monolith_balcony_sniper1
team 7, squad 18, group 10, pri_monolith_balcony_sniper2
team 0, squad 18, group 10, pri_monolith_camper_n_1
team 0, squad 18, group 1, pri_monolith_leader
team 7, squad 18, group 10, pri_monolith_roof1
team 7, squad 18, group 10, pri_monolith_roof2
team 0, squad 18, group 10, pri_monolith_roof3
team 0, squad 18, group 10, pri_monolith_roof3_0000
team 0, squad 18, group 10, pri_monolith_roof3_0001
team 0, squad 18, group 17, pri_stadium_sniper1
team 0, squad 18, group 17, pri_stadium_sniper2
team 0, squad 18, group 17, pri_stadium_sniper3
team 0, squad 18, group 1, pri_wave1_monolith1_rsniper1
team 0, squad 18, group 1, pri_wave1_monolith2_free1
team 0, squad 18, group 1, pri_wave1_monolith3_free2
team 0, squad 11, group 3, pri_wave4_monolith5_free1
team 0, squad 11, group 4, pri_wave4_monolith5_free2
team 0, squad 11, group 4, pri_wave4_monolith5_free3
team 0, squad 18, group 5, pri_wave5_monolith1_free1
team 0, squad 18, group 5, pri_wave5_monolith2_free2
team 0, squad 18, group 5, pri_wave5_monolith3_free3
team 0, squad 18, group 5, pri_wave5_monolith4_free4
team 7, squad 18, group 7, pri_wave7_monolith1
team 7, squad 18, group 7, pri_wave7_monolith2
team 7, squad 18, group 7, pri_wave7_monolith3
team 7, squad 18, group 7, pri_wave7_monolith4
team 7, squad 18, group 7, pri_wave7_monolith5
team 0, squad 18, group 3, pri_stadium_lair_tushkano_0000
team 0, squad 18, group 3, pri_stadium_lair_tushkano_0001
team 0, squad 18, group 3, pri_stadium_lair_tushkano_0002
team 0, squad 18, group 3, pri_stadium_lair_tushkano_0003
team 0, squad 18, group 3, pri_stadium_lair_tushkano_0004
team 0, squad 18, group 3, pri_stadium_lair_tushkano_0005
team 0, squad 18, group 3, pri_stadium_lair_tushkano_0006
importing alife objects from file alife_l12_stancia.ltx...
team 0, squad 0, group 0, aes_btr
team 0, squad 0, group 0, aes_btr_0000
team 0, squad 0, group 0, aes_btr_0001
team 0, squad 0, group 0, aes_btr_0002
team 0, squad 0, group 0, aes_m_car
team 0, squad 0, group 0, aes_monolit_heli_hunter
team 0, squad 0, group 0, aes_monolit_stalker_0000
team 0, squad 0, group 0, aes_monolit_stalker_0001
team 0, squad 0, group 0, aes_monolit_stalker_0004
team 0, squad 0, group 0, aes_monolit_stalker_0006
team 0, squad 0, group 0, aes_monolit_stalker_0007
team 0, squad 0, group 0, aes_monolit_stalker_0008
team 10, squad 10, group 10, aes_monolit_stalker_0010
team 9, squad 9, group 9, aes_monolit_stalker_0012
team 9, squad 9, group 9, aes_monolit_stalker_0014
team 0, squad 0, group 0, aes_monolit_stalker_0016
team 0, squad 0, group 0, aes_monolit_stalker_0017
team 0, squad 0, group 0, aes_monolit_stalker_0018
team 0, squad 0, group 0, aes_monolit_stalker_0021
team 10, squad 10, group 10, aes_monolit_stalker_0023
team 10, squad 10, group 10, aes_monolit_stalker_0024
team 10, squad 10, group 10, aes_monolit_stalker_0025
team 0, squad 0, group 0, aes_monolit_stalker_0026
team 0, squad 0, group 0, aes_monolit_stalker_0027
team 10, squad 10, group 10, aes_monolit_stalker_0029
team 0, squad 0, group 0, aes_monolit_stalker_0030
team 0, squad 0, group 0, aes_monolit_stalker_0032
team 0, squad 0, group 0, aes_monolit_stalker_0033
team 10, squad 10, group 10, aes_monolit_stalker_0034
team 0, squad 10, group 0, aes_monolit_stalker_0036
team 0, squad 10, group 0, aes_monolit_stalker_0037
team 0, squad 10, group 0, aes_monolit_stalker_0038
team 0, squad 10, group 0, aes_monolit_stalker_0039
team 0, squad 10, group 0, aes_monolit_stalker_0040
team 0, squad 10, group 0, aes_monolit_stalker_0041
team 0, squad 10, group 0, aes_monolit_stalker_0042
team 0, squad 0, group 0, aes_monolit_stalker_0045
team 0, squad 0, group 0, aes_monolit_stalker_0046
team 0, squad 0, group 0, aes_monolit_stalker_0047
team 0, squad 0, group 0, aes_monolit_stalker_0048
team 0, squad 0, group 0, aes_monolit_stalker_0049
team 0, squad 0, group 0, aes_monolit_stalker_0050
team 10, squad 10, group 10, aes_monolit_stalker_0051
team 0, squad 0, group 0, aes_soldier_commander
team 5, squad 5, group 5, aes_soldier_desant_wave_0000
team 5, squad 5, group 5, aes_soldier_desant_wave_0001
team 5, squad 5, group 5, aes_soldier_desant_wave_0002
team 5, squad 5, group 5, aes_soldier_desant_wave_0003
team 5, squad 5, group 5, aes_soldier_desant_wave_0006
team 3, squad 3, group 3, aes_soldier_desant_wave_0007
team 3, squad 3, group 3, aes_soldier_desant_wave_0008
team 3, squad 3, group 3, aes_soldier_desant_wave_0010
team 3, squad 3, group 3, aes_soldier_desant_wave_0014
team 2, squad 2, group 2, aes_soldier_desant_wave_0015
team 2, squad 2, group 2, aes_soldier_desant_wave_0016
team 4, squad 4, group 4, aes_soldier_desant_wave_0023
team 4, squad 4, group 4, aes_soldier_desant_wave_0024
team 4, squad 4, group 4, aes_soldier_desant_wave_0025
team 1, squad 1, group 1, aes_soldier_desant_wave_0029
team 1, squad 1, group 1, aes_soldier_desant_wave_0031
team 1, squad 1, group 1, aes_soldier_desant_wave_0032
team 1, squad 1, group 1, aes_soldier_desant_wave_0033
team 1, squad 1, group 1, aes_soldier_desant_wave_0042
team 1, squad 1, group 1, aes_soldier_desant_wave_0044
team 1, squad 1, group 1, aes_soldier_desant_wave_0045
team 1, squad 1, group 1, aes_soldier_desant_wave_0046
team 1, squad 1, group 1, aes_soldier_desant_wave_0050
team 1, squad 1, group 1, aes_soldier_desant_wave_0051
team 1, squad 1, group 1, aes_soldier_desant_wave_0052
team 5, squad 5, group 5, aes_soldier_desant_wave_0053
team 5, squad 5, group 5, aes_soldier_desant_wave_0054
team 5, squad 5, group 5, aes_soldier_desant_wave_0055
team 5, squad 5, group 5, aes_soldier_desant_wave_0056
team 5, squad 5, group 5, aes_soldier_desant_wave_0057
team 0, squad 0, group 0, aes_stalker
team 0, squad 0, group 0, aes_stalker_0000
team 0, squad 0, group 0, aes_stalker_0002
team 0, squad 0, group 0, aes_stalker_0004
team 0, squad 0, group 0, aes_stalker_0005
team 0, squad 0, group 0, aes_stalker_0006
team 0, squad 0, group 0, aes_stalker_0007
team 0, squad 0, group 0, aes_stalker_0008
team 0, squad 0, group 0, aes_stalker_0009
team 10, squad 10, group 10, aes_stalker_0011
team 0, squad 10, group 0, aes_stalker_0012
team 0, squad 0, group 0, aes_stalker_0013
team 0, squad 10, group 0, aes_stalker_0014
importing alife objects from file alife_l12u_sarcofag.ltx...
team 0, squad 30, group 1, sar_secret_room_monolith_1
team 0, squad 30, group 1, sar_secret_room_monolith_2
team 0, squad 30, group 1, sar_secret_room_monolith_3
team 0, squad 30, group 1, sar_secret_room_monolith_4
team 0, squad 30, group 1, sar_secret_room_monolith_5
team 0, squad 30, group 1, sar_secret_room_monolith_6
team 0, squad 30, group 1, sar_secret_room_monolith_7
team 0, squad 30, group 1, sar_secret_room_monolith_8
team 0, squad 20, group 0, sar_stalker_monolith_0002
team 0, squad 20, group 0, sar_stalker_monolith_0008
team 0, squad 20, group 0, sar_stalker_monolith_0011
team 0, squad 20, group 0, sar_stalker_monolith_0012
team 0, squad 20, group 0, sar_stalker_monolith_0013
team 0, squad 20, group 0, sar_stalker_monolith_0014
team 0, squad 20, group 0, sar_stalker_monolith_0015
team 0, squad 20, group 0, sar_stalker_monolith_0016
team 0, squad 20, group 0, sar_stalker_monolith_0017
team 0, squad 20, group 0, sar_stalker_monolith_0018
team 0, squad 20, group 0, sar_stalker_monolith_0019
team 0, squad 20, group 0, sar_stalker_monolith_0020
team 0, squad 20, group 0, sar_stalker_monolith_high
team 0, squad 20, group 0, sar_stalker_monolith_high_0000
team 0, squad 20, group 0, sar_stalker_monolith_high_0001
team 0, squad 20, group 0, sar_stalker_monolith_high_0002
team 0, squad 20, group 0, sar_stalker_monolith_high_0003
team 0, squad 20, group 0, sar_stalker_monolith_high_0004
team 0, squad 20, group 0, sar_stalker_monolith_high_0005
team 0, squad 20, group 0, sar_stalker_monolith_high_0006
team 0, squad 20, group 0, sar_stalker_monolith_high_0007
team 0, squad 20, group 0, sar_stalker_monolith_high_0008
team 0, squad 20, group 0, sar_stalker_monolith_high_0009
team 0, squad 20, group 0, sar_stalker_monolith_lest_0000
team 0, squad 20, group 0, sar_stalker_monolith_lest_0001
team 0, squad 20, group 0, sar_stalker_monolith_lest_1
team 0, squad 20, group 0, sar_stalker_sklad
team 0, squad 20, group 0, sar_stalker_sklad_0000
team 0, squad 20, group 0, sar_stalker_sklad_0001
team 0, squad 20, group 0, sar_stalker_sklad_0002
team 0, squad 20, group 0, sar_stalker_sklad_0003
importing alife objects from file alife_l12u_control_monolith.ltx...
team 0, squad 0, group 17, mon_stalker
team 0, squad 0, group 0, mon_m_poltergeist_normal_flame
team 0, squad 0, group 0, mon_m_poltergeist_normal_flame_0000
team 0, squad 0, group 0, mon_m_poltergeist_normal_flame_0001
team 0, squad 21, group 2, mon_stalker_camper_0001
team 0, squad 21, group 2, mon_stalker_camper_0002
team 0, squad 21, group 2, mon_stalker_camper_0003
team 0, squad 0, group 0, mon_stalker_monolith
team 0, squad 0, group 0, mon_stalker_monolith_0000
team 0, squad 0, group 0, mon_stalker_monolith_0001
team 0, squad 21, group 2, mon_stalker_monolith_post1
team 0, squad 21, group 2, mon_stalker_monolith_post2
team 0, squad 21, group 2, mon_stalker_monolith_post3
team 0, squad 21, group 0, mon_stalker_walker2_0001
team 0, squad 21, group 0, mon_stalker_walker2_0002
team 0, squad 21, group 0, mon_stalker_walker2_0003
team 0, squad 21, group 0, mon_stalker_walker2_0004
team 0, squad 21, group 0, mon_stalker_walker2_0005
team 0, squad 21, group 0, mon_stalker_walker2_0006
team 0, squad 21, group 0, mon_stalker_walker3_0001
team 0, squad 21, group 0, mon_stalker_walker3_0002
team 0, squad 21, group 0, mon_stalker_walker3_0003
team 0, squad 21, group 0, mon_stalker_walker3_0004
team 0, squad 21, group 0, mon_stalker_walker4_0001
team 0, squad 21, group 0, mon_stalker_walker4_0002
team 0, squad 21, group 0, mon_stalker_walker4_0003
team 0, squad 21, group 0, mon_stalker_walker4_0004
team 0, squad 21, group 0, mon_stalker_walker4_0005
team 0, squad 21, group 0, mon_stalker_walker_0001
team 0, squad 21, group 0, mon_stalker_walker_0002
team 0, squad 21, group 0, mon_stalker_walker_0003
team 0, squad 21, group 0, mon_stalker_walker_0004
team 0, squad 21, group 0, mon_stalker_walker_0005
team 0, squad 21, group 0, mon_stalker_walker_0006
importing alife objects from file alife_l12_stancia_2.ltx...
team 0, squad 0, group 0, aes2_snork_strong
team 0, squad 0, group 0, aes2_snork_strong_0000
team 0, squad 0, group 0, aes2_snork_strong_0004
team 0, squad 0, group 0, aes2_snork_strong_0009
team 0, squad 0, group 0, aes2_snork_strong_0010
team 0, squad 0, group 0, aes2_snork_strong_0011
team 0, squad 0, group 0, aes2_snork_strong_0013
team 0, squad 0, group 0, aes2_snork_strong_0014
team 0, squad 0, group 0, aes2_snork_strong_0019
team 0, squad 0, group 0, aes2_snork_strong_0020
team 0, squad 0, group 0, aes2_snork_strong_0032
team 0, squad 0, group 0, aes2_snork_strong_0033
team 0, squad 0, group 0, aes2_snork_outdoor
team 0, squad 0, group 0, aes2_snork_outdoor_0000
team 0, squad 0, group 0, aes2_snork_outdoor_0001
team 0, squad 0, group 0, aes2_snork_strong_0018
team 1, squad 1, group 1, aes2_monolit_stalker_0000
team 1, squad 1, group 1, aes2_monolit_stalker_0001
team 1, squad 1, group 1, aes2_monolit_stalker_0002
team 1, squad 1, group 1, aes2_monolit_stalker_0003
team 1, squad 1, group 1, aes2_monolit_stalker_0004
team 1, squad 1, group 1, aes2_monolit_stalker_0005
team 1, squad 1, group 1, aes2_monolit_stalker_0006
team 1, squad 1, group 1, aes2_monolit_stalker_0007
team 1, squad 1, group 1, aes2_monolit_stalker_0008
team 1, squad 1, group 1, aes2_monolit_stalker_0009
team 1, squad 1, group 1, aes2_monolit_stalker_0010
team 1, squad 1, group 1, aes2_monolit_stalker_0011
team 1, squad 1, group 1, aes2_monolit_stalker_0012
team 1, squad 1, group 1, aes2_monolit_stalker_0013
team 2, squad 2, group 2, aes2_monolit_stalker_0014
team 1, squad 1, group 1, aes2_monolit_stalker_0015
team 1, squad 1, group 1, aes2_monolit_stalker_0016
team 1, squad 1, group 1, aes2_monolit_stalker_0017
team 1, squad 1, group 1, aes2_monolit_stalker_0018
team 1, squad 1, group 1, aes2_monolit_stalker_0019
team 1, squad 1, group 1, aes2_monolit_stalker_0020
team 2, squad 2, group 2, aes2_monolit_stalker_0021
team 1, squad 1, group 1, aes2_monolit_stalker_0022
team 1, squad 1, group 1, aes2_monolit_stalker_0023
team 1, squad 1, group 1, aes2_monolit_stalker_0024
team 1, squad 1, group 1, aes2_monolit_stalker_0025
team 2, squad 2, group 2, aes2_monolit_stalker_0026
team 2, squad 2, group 2, aes2_monolit_stalker_0027
team 2, squad 2, group 2, aes2_monolit_stalker_0028
team 2, squad 2, group 2, aes2_monolit_stalker_0029
team 2, squad 2, group 2, aes2_monolit_stalker_0030
team 2, squad 2, group 2, aes2_monolit_stalker_0031
team 2, squad 2, group 2, aes2_monolit_stalker_0032
team 2, squad 2, group 2, aes2_monolit_stalker_0033
team 2, squad 2, group 2, aes2_monolit_stalker_0034
team 2, squad 2, group 2, aes2_monolit_stalker_0035
team 2, squad 2, group 2, aes2_monolit_stalker_0036
team 2, squad 2, group 2, aes2_monolit_stalker_0037
team 2, squad 2, group 2, aes2_monolit_stalker_0038
team 2, squad 2, group 2, aes2_monolit_stalker_0039
team 2, squad 2, group 2, aes2_monolit_stalker_0040
team 2, squad 2, group 2, aes2_monolit_stalker_0042
team 2, squad 2, group 2, aes2_monolit_stalker_0043
team 2, squad 2, group 2, aes2_monolit_stalker_0044
team 2, squad 2, group 2, aes2_monolit_stalker_0045
team 2, squad 2, group 2, aes2_monolit_stalker_0046
team 2, squad 2, group 2, aes2_monolit_stalker_0047
team 2, squad 2, group 2, aes2_monolit_stalker_0048
team 1, squad 1, group 1, aes2_monolit_stalker_0049
team 2, squad 2, group 2, aes2_monolit_stalker_0050
team 2, squad 2, group 2, aes2_monolit_stalker_0051
team 2, squad 2, group 2, aes2_monolit_stalker_0052
team 2, squad 2, group 2, aes2_monolit_stalker_0053
team 2, squad 2, group 2, aes2_monolit_stalker_0054
team 2, squad 2, group 2, aes2_monolit_stalker_0055
team 2, squad 2, group 2, aes2_monolit_stalker_0056
team 2, squad 2, group 2, aes2_monolit_stalker_0062
team 2, squad 2, group 2, aes2_monolit_stalker_0063
team 2, squad 2, group 2, aes2_monolit_stalker_0064
team 2, squad 2, group 2, aes2_monolit_stalker_0065
team 2, squad 2, group 2, aes2_monolit_stalker_0066
team 2, squad 2, group 2, aes2_monolit_stalker_0067
team 2, squad 2, group 2, aes2_monolit_stalker_0068
team 2, squad 2, group 2, aes2_monolit_stalker_0069
team 2, squad 2, group 2, aes2_monolit_stalker_0070
team 2, squad 2, group 2, aes2_monolit_stalker_0071
team 2, squad 2, group 2, aes2_monolit_stalker_0073
team 2, squad 2, group 2, aes2_monolit_stalker_0074
team 2, squad 2, group 2, aes2_monolit_stalker_0075
team 2, squad 2, group 2, aes2_monolit_stalker_0078
team 0, squad 0, group 0, aes2_stalker
team 3, squad 3, group 3, aes2_stalker_0002
team 3, squad 3, group 3, aes2_stalker_0003
team 3, squad 3, group 3, aes2_stalker_0004
team 3, squad 3, group 3, aes2_stalker_0005
team 3, squad 3, group 3, aes2_stalker_0008
team 3, squad 3, group 3, aes2_stalker_0010
team 3, squad 3, group 3, aes2_stalker_0011
team 0, squad 0, group 0, aes2_stalker_0030
team 0, squad 0, group 0, aes2_stalker_0032
team 0, squad 0, group 0, aes2_stalker_0035
team 0, squad 0, group 0, aes2_stalker_0036
team 3, squad 3, group 3, aes2_stalker_0037
team 3, squad 3, group 3, aes2_stalker_0038
team 3, squad 3, group 3, aes2_stalker_0039
team 3, squad 3, group 3, aes2_stalker_0040
team 3, squad 3, group 3, aes2_stalker_0041
importing alife objects from file alife_l10u_bunker.ltx...
team 0, squad 0, group 0, bun_bloodsucker_strong
team 0, squad 0, group 0, bun_bloodsucker_strong_0000
team 0, squad 0, group 0, bun_bloodsucker_strong_0001
team 0, squad 0, group 0, bun_stalker_monolith
team 0, squad 0, group 0, bun_stalker_monolith_0000
team 0, squad 0, group 0, bun_stalker_monolith_0001
team 0, squad 0, group 0, bun_stalker_monolith_0002
team 0, squad 0, group 0, bun_stalker_monolith_0003
team 0, squad 0, group 0, bun_stalker_monolith_0004
team 0, squad 0, group 0, bun_stalker_monolith_0005
team 0, squad 0, group 0, bun_stalker_monolith_0006
team 0, squad 0, group 0, bun_stalker_monolith_0007
team 0, squad 0, group 0, bun_stalker_monolith_0008
team 0, squad 0, group 0, bun_stalker_monolith_0009
team 0, squad 0, group 0, bun_stalker_monolith_0010
team 0, squad 0, group 0, bun_stalker_monolith_0011
team 0, squad 0, group 0, bun_stalker_monolith_0012
team 0, squad 0, group 0, bun_stalker_monolith_0013
team 0, squad 0, group 0, bun_stalker_monolith_0014
team 0, squad 0, group 0, bun_stalker_monolith_0015
team 0, squad 0, group 0, bun_stalker_monolith_0016
team 0, squad 0, group 0, bun_stalker_monolith_0017
team 0, squad 0, group 0, bun_stalker_monolith_0018
team 0, squad 0, group 0, bun_stalker_monolith_0019
team 0, squad 0, group 0, bun_stalker_monolith_0020
team 0, squad 0, group 0, bun_stalker_monolith_0021
team 0, squad 0, group 0, bun_stalker_monolith_0022
team 0, squad 0, group 0, bun_stalker_monolith_0023
team 0, squad 0, group 0, bun_stalker_monolith_0024
team 0, squad 0, group 0, bun_stalker_monolith_0025
team 0, squad 0, group 0, bun_stalker_monolith_0026
team 0, squad 0, group 0, bun_stalker_monolith_0027
team 0, squad 0, group 0, bun_stalker_monolith_0028
importing alife objects from file alife_k01_darkscape_ogse.ltx...
team 0, squad 0, group 0, ds_boar_0001
team 0, squad 0, group 0, ds_boar_0002
team 0, squad 0, group 0, ds_boar_0004
team 0, squad 0, group 0, ds_boar_0005
team 0, squad 0, group 0, ds_boar_0008
team 0, squad 0, group 0, ds_boar_0011
team 0, squad 0, group 0, ds_boar_0013
team 0, squad 0, group 0, ds_boar_0003
team 0, squad 0, group 0, ds_dog_0001
team 0, squad 0, group 0, ds_dog_0002
team 0, squad 0, group 0, ds_dog_0003
team 0, squad 0, group 0, ds_dog_0004
team 0, squad 0, group 0, ds_dog_0005
team 0, squad 0, group 0, ds_dog_0006
team 0, squad 0, group 0, ds_dog_0007
team 0, squad 0, group 0, ds_dog_0008
team 0, squad 0, group 0, ds_flesh_0001
team 0, squad 0, group 0, ds_flesh_0004
team 0, squad 0, group 0, ds_flesh_0006
team 0, squad 0, group 0, ds_flesh_0008
team 0, squad 0, group 0, ds_flesh_0011
team 0, squad 0, group 0, ds_flesh_0019
team 0, squad 0, group 0, ds_flesh_0025
team 0, squad 0, group 0, ds_flesh_0028
team 0, squad 0, group 0, ds_flesh_0026
team 0, squad 0, group 0, ds_flesh_0024
team 0, squad 0, group 0, ds_flesh_0027
team 0, squad 0, group 0, ds_flesh_0003
team 0, squad 0, group 0, ds_flesh_0007
team 0, squad 0, group 0, ds_flesh_0009
team 0, squad 1, group 2, iskatel_ahmet
team 0, squad 1, group 2, iskatel_bacha
team 0, squad 1, group 2, iskatel_dusty
team 0, squad 1, group 2, iskatel_shaman
team 0, squad 1, group 2, iskatel_yuriy
team 0, squad 1, group 2, ds_glavar
team 0, squad 1, group 2, ds_nalet_band_1
team 0, squad 1, group 2, ds_nalet_band_2
team 0, squad 1, group 2, ds_nalet_band_3
team 0, squad 1, group 2, ds_nalet_band_4
team 0, squad 1, group 2, ds_nalet_band_5
team 0, squad 1, group 2, ds_nalet_band_6
team 0, squad 1, group 2, ds_nalet_band_7
team 0, squad 1, group 2, ds_nalet_band_8
team 0, squad 1, group 2, ds_patruln
team 0, squad 1, group 2, ds_shesterka
team 0, squad 1, group 2, ds_telohr_1
team 0, squad 1, group 2, ds_telohr_2
team 0, squad 0, group 0, dar_dez_btr
team 0, squad 0, group 0, dar_dez_uaz
team 0, squad 0, group 0, dar_dolg_gaz66
team 0, squad 0, group 0, ds_m_crow
team 0, squad 0, group 0, ds_m_crow_0002
team 0, squad 0, group 0, ds_m_crow_0003
team 0, squad 0, group 0, ds_m_crow_0004
team 0, squad 0, group 0, ds_m_crow_0005
team 0, squad 0, group 0, ds_m_crow_0006
team 0, squad 0, group 0, ds_m_crow_0007
team 0, squad 0, group 0, ds_m_crow_0008
team 0, squad 0, group 0, ds_m_crow_0009
team 0, squad 0, group 0, ds_m_crow_0010
team 0, squad 0, group 0, ds_m_crow_0011
team 0, squad 0, group 0, ds_m_crow_0012
team 0, squad 0, group 0, ds_m_crow_0013
team 0, squad 0, group 0, ds_m_crow_0014
team 0, squad 0, group 0, ds_m_crow_0015
team 0, squad 0, group 0, ds_m_crow_0016
team 0, squad 0, group 0, ds_m_crow_0017
team 0, squad 0, group 0, ds_m_crow_0018
team 0, squad 0, group 0, ds_m_crow_0019
team 0, squad 0, group 0, ds_m_crow_0020
team 0, squad 0, group 0, ds_m_crow_0021
team 0, squad 0, group 0, ds_m_crow_0022
team 0, squad 0, group 0, ds_m_crow_0023
team 0, squad 0, group 0, ds_m_crow_0024
team 0, squad 0, group 0, ds_m_crow_0025
team 0, squad 0, group 0, ds_m_crow_0026
team 0, squad 0, group 0, ds_m_crow_0027
team 0, squad 0, group 0, ds_m_crow_0028
team 0, squad 0, group 0, ds_m_crow_0029
team 0, squad 0, group 0, ds_m_crow_0030
team 0, squad 1, group 2, bratstvo_agent_1
team 0, squad 1, group 2, bratstvo_cleaner
team 0, squad 1, group 2, bratstvo_lider
team 0, squad 1, group 2, bratstvo_orujeinik
team 0, squad 1, group 2, bratstvo_vrach
team 0, squad 1, group 2, ds_hunter
team 0, squad 0, group 0, ds_bloodsucker_strong
team 0, squad 1, group 1, darkscape_zombie_0000
team 0, squad 1, group 1, darkscape_zombie_0001
team 0, squad 1, group 1, darkscape_zombie_0002
team 0, squad 0, group 0, ds_dead_ecolog_1
team 0, squad 0, group 0, ds_dead_ecolog_2
team 0, squad 1, group 2, fourth_neutral
team 0, squad 1, group 0, yan_ecolog_preobr
importing alife objects from file alife_l09_deadcity_ogse.ltx...
team 0, squad 0, group 0, l09_deadcity_ogse_m_crow
team 0, squad 0, group 0, l09_deadcity_ogse_m_crow_0000
team 0, squad 0, group 0, l09_deadcity_ogse_m_crow_0001
team 0, squad 0, group 0, l09_deadcity_ogse_m_crow_0002
team 0, squad 0, group 0, l09_deadcity_ogse_m_crow_0003
team 0, squad 0, group 0, l09_deadcity_ogse_m_crow_0004
team 0, squad 0, group 0, l09_deadcity_ogse_m_crow_0005
team 0, squad 0, group 0, l09_deadcity_ogse_m_crow_0006
team 0, squad 0, group 0, l09_deadcity_ogse_m_crow_0007
team 0, squad 0, group 0, l09_deadcity_ogse_m_crow_0008
team 0, squad 0, group 0, l09_deadcity_ogse_m_crow_0009
team 0, squad 0, group 0, l09_deadcity_ogse_m_crow_0010
team 0, squad 0, group 0, dead_city_btr_fake
team 0, squad 0, group 0, dead_city_btr_real
team 0, squad 0, group 0, btr_gunner
team 0, squad 0, group 0, chinook_pilot_1
team 0, squad 0, group 0, chinook_pilot_2
team 0, squad 0, group 0, btr_commander
team 0, squad 0, group 0, btr_ecolog_1
team 0, squad 0, group 0, btr_ecolog_2
team 0, squad 0, group 0, btr_science_lead
team 0, squad 1, group 2, val_kvestx10_svyaznoy
team 0, squad 0, group 0, gorkom_librarian
team 0, squad 1, group 1, deadcity_bar_guard1
team 0, squad 1, group 1, deadcity_bar_guard2
team 0, squad 1, group 1, deadcity_bar_barman
team 0, squad 1, group 1, deadcity_bar_drinkman
team 0, squad 1, group 1, deadcity_bar_nardyman
team 0, squad 1, group 1, deadcity_bar_billiardman
team 0, squad 1, group 1, deadcity_bar_restsofa
team 0, squad 1, group 1, deadcity_bar_sleeper
team 0, squad 1, group 1, deadcity_bar_zasranets
team 0, squad 0, group 0, cit_kanaliz1_snork_0000
team 0, squad 0, group 0, deadcity_snork_0000
team 0, squad 0, group 0, deadcity_snork_0001
team 0, squad 0, group 0, deadcity_snork_0002
team 0, squad 0, group 0, deadcity_snork_0003
team 0, squad 0, group 0, deadcity_snork_0004
team 0, squad 0, group 0, deadcity_snork_0005
team 0, squad 0, group 0, deadcity_snork_0006
team 0, squad 0, group 0, deadcity_snork_0007
team 0, squad 0, group 0, deadcity_snork_0008
team 0, squad 0, group 0, deadcity_snork_0009
team 0, squad 0, group 0, deadcity_snork_0010
team 0, squad 0, group 0, deadcity_snork_0011
team 0, squad 0, group 0, deadcity_snork_0012
team 0, squad 0, group 0, deadcity_snork_0013
team 0, squad 0, group 0, deadcity_snork_0014
team 0, squad 0, group 0, deadcity_snork_0015
team 0, squad 0, group 0, deadcity_snork_0016
team 0, squad 0, group 0, deadcity_snork_0017
team 0, squad 0, group 0, cit_kanaliz1_snork_0001
team 0, squad 0, group 0, cit_kanaliz1_snork_0002
team 0, squad 0, group 0, cit_kanaliz2_snork_0000
team 0, squad 0, group 0, cit_kanaliz2_snork_0001
team 0, squad 0, group 0, cit_kanaliz2_snork_0002
team 0, squad 0, group 0, cit_kanaliz1_snork_0003
team 0, squad 0, group 0, deadcity_bloodsucker_0000
team 0, squad 0, group 0, deadcity_bloodsucker_0001
team 0, squad 0, group 0, deadcity_bloodsucker_0002
team 0, squad 0, group 0, deadcity_dog_0000
team 0, squad 0, group 0, deadcity_dog_0001
team 0, squad 0, group 0, deadcity_dog_0002
team 0, squad 0, group 0, deadcity_dog_0003
team 0, squad 0, group 0, deadcity_dog_0004
team 0, squad 0, group 0, deadcity_dog_0005
team 0, squad 0, group 0, deadcity_psy_dog_0001
team 0, squad 0, group 0, deadcity_psy_dog_0002
team 0, squad 0, group 0, deadcity_controller_0000
team 0, squad 0, group 0, deadcity_controller_0001
team 0, squad 0, group 0, deadcity_controller_0002
team 0, squad 0, group 0, deadcity_controller_0003
team 0, squad 0, group 0, deadcity_controller_0004
team 0, squad 0, group 0, deadcity_controller_0005
team 0, squad 1, group 1, deadcity_zombie_0000
team 0, squad 1, group 1, deadcity_zombie_0001
team 0, squad 1, group 1, deadcity_zombie_0002
team 0, squad 1, group 1, deadcity_zombie_0003
team 0, squad 1, group 1, deadcity_zombie_0004
team 0, squad 1, group 1, deadcity_zombie_0005
team 0, squad 1, group 1, deadcity_zombie_0006
team 0, squad 1, group 1, deadcity_zombie_0007
team 0, squad 1, group 1, deadcity_zombie_0008
team 0, squad 1, group 1, deadcity_zombie_0009
team 0, squad 1, group 1, deadcity_zombie_0010
team 0, squad 1, group 1, deadcity_zombie_0011
team 0, squad 1, group 1, deadcity_zombie_0012
team 0, squad 1, group 1, deadcity_zombie_0013
team 0, squad 1, group 1, deadcity_zombie_0014
team 0, squad 1, group 1, deadcity_zombie_0015
team 0, squad 1, group 1, deadcity_zombie_0016
team 0, squad 1, group 1, deadcity_zombie_0017
team 0, squad 1, group 1, deadcity_zombie_0018
team 0, squad 1, group 1, deadcity_zombie_0019
team 0, squad 1, group 1, deadcity_zombie_0020
team 0, squad 1, group 1, deadcity_zombie_0021
team 0, squad 1, group 1, deadcity_zombie_0022
team 0, squad 1, group 1, deadcity_zombie_0023
team 0, squad 1, group 1, deadcity_zombie_0024
team 0, squad 1, group 1, deadcity_zombie_0025
team 0, squad 1, group 1, deadcity_zombie_0026
team 0, squad 1, group 1, deadcity_zombie_0027
team 0, squad 1, group 1, deadcity_zombie_0028
team 0, squad 1, group 1, deadcity_zombie_0029
team 0, squad 1, group 1, deadcity_zombie_0030
team 0, squad 1, group 1, deadcity_zombie_0031
team 0, squad 1, group 1, deadcity_zombie_0032
team 0, squad 1, group 1, deadcity_zombie_0033
team 0, squad 1, group 1, deadcity_zombie_0034
team 0, squad 1, group 1, deadcity_zombie_0035
team 0, squad 1, group 1, deadcity_zombie_0036
team 0, squad 1, group 1, deadcity_zombie_0037
team 0, squad 1, group 1, deadcity_zombie_0038
team 0, squad 1, group 1, deadcity_zombie_0039
team 0, squad 1, group 1, deadcity_zombie_0040
team 0, squad 1, group 1, deadcity_zombie_0041
team 0, squad 1, group 1, deadcity_zombie_0042
team 0, squad 1, group 1, deadcity_zombie_0043
team 0, squad 1, group 1, deadcity_zombie_0044
team 0, squad 1, group 1, deadcity_zombie_0045
team 0, squad 1, group 1, deadcity_zombie_0046
team 0, squad 1, group 1, deadcity_zombie_0047
team 0, squad 1, group 1, deadcity_zombie_0048
team 0, squad 1, group 1, deadcity_zombie_0049
team 0, squad 1, group 1, deadcity_zombie_0050
team 0, squad 1, group 1, deadcity_zombie_0051
team 0, squad 1, group 1, deadcity_zombie_0052
team 0, squad 1, group 1, deadcity_zombie_0053
team 0, squad 1, group 1, deadcity_zombie_0054
team 0, squad 1, group 1, deadcity_zombie_0055
team 0, squad 1, group 1, deadcity_zombie_0056
team 0, squad 1, group 1, deadcity_zombie_0057
team 0, squad 1, group 1, deadcity_zombie_0058
team 0, squad 1, group 1, deadcity_zombie_0059
team 0, squad 0, group 0, deadcity_dead_ecolog_1
team 0, squad 0, group 0, deadcity_dead_ecolog_2
team 0, squad 0, group 0, deadcity_dead_ecolog_3
team 0, squad 0, group 0, deadcity_dead_ecolog_4
team 0, squad 0, group 0, deadcity_dead_ecolog_5
team 0, squad 0, group 0, deadcity_dead_ecolog_6
team 0, squad 0, group 0, deadcity_dead_ecolog_7
team 0, squad 0, group 0, deadcity_dead_ecolog_8
team 0, squad 0, group 0, deadcity_dead_ecolog_9
team 0, squad 0, group 0, deadcity_dead_lair_00
team 0, squad 0, group 0, deadcity_dead_lair_01
team 0, squad 0, group 0, deadcity_dead_lair_02
team 0, squad 0, group 0, deadcity_dead_lair_03
team 0, squad 0, group 0, deadcity_dead_lair_04
team 0, squad 0, group 0, deadcity_dead_lair_05
team 0, squad 0, group 0, deadcity_dead_lair_06
team 0, squad 0, group 0, deadcity_dead_lair_07
team 0, squad 0, group 0, deadcity_dead_lair_08
team 0, squad 0, group 0, deadcity_dead_lair_09
team 0, squad 0, group 0, deadcity_dead_lair_10
team 0, squad 0, group 0, deadcity_dead_lair_11
team 0, squad 0, group 0, deadcity_dead_lair_12
team 0, squad 0, group 0, deadcity_dead_lair_13
team 0, squad 0, group 0, deadcity_master_lair_polter_00
team 0, squad 0, group 0, deadcity_master_lair_polter_01
team 0, squad 0, group 0, deadcity_master_lair_polter_02
team 0, squad 0, group 0, deadcity_master_lair_polter
team 0, squad 0, group 0, deadcity_master_voice
team 0, squad 0, group 0, stalker_kolya
importing alife objects from file alife_l13_generators_ogse.ltx...
team 0, squad 0, group 0, generators_boar_strong
team 0, squad 0, group 0, generators_boar_strong_0000
team 0, squad 0, group 0, generators_boar_strong_0001
team 0, squad 0, group 0, generators_boar_strong_0002
team 0, squad 0, group 0, generators_boar_strong_0003
team 0, squad 0, group 0, generators_dog_normal
team 0, squad 0, group 0, generators_dog_normal_0000
team 0, squad 0, group 0, generators_dog_normal_0001
team 0, squad 0, group 0, generators_dog_strong
team 0, squad 0, group 0, generators_dog_strong_0000
team 0, squad 0, group 0, generators_dog_strong_0001
team 0, squad 0, group 0, generators_dog_strong_0002
team 0, squad 0, group 0, generators_dog_strong_0003
team 0, squad 0, group 0, generators_dog_weak
team 0, squad 0, group 0, generators_dog_weak_0000
team 0, squad 0, group 0, generators_dog_weak_0001
team 0, squad 0, group 0, generators_dog_weak_0002
team 0, squad 0, group 0, generators_psy_dog_radar
team 0, squad 0, group 0, generators_psy_dog_radar_0000
team 0, squad 0, group 0, generators_snork_strong
team 0, squad 0, group 0, generators_snork_strong_0000
team 0, squad 0, group 0, generators_snork_strong_0001
team 0, squad 0, group 0, generators_snork_strong_0002
team 0, squad 0, group 0, generators_snork_strong_0003
team 0, squad 0, group 0, generators_snork_strong_0004
team 0, squad 0, group 0, generators_snork_strong_0005
team 0, squad 0, group 0, generators_snork_strong_0006
team 0, squad 0, group 0, generators_snork_strong_0007
team 0, squad 0, group 0, generators_snork_strong_0008
team 0, squad 0, group 0, gen_btr_monolith
team 0, squad 1, group 1, warlab_sniper_1
team 0, squad 1, group 1, warlab_sniper_2
team 0, squad 1, group 1, warlab_sniper_3
team 0, squad 1, group 1, warlab_sniper_4
team 0, squad 1, group 1, warlab_sniper_5
team 0, squad 1, group 1, warlab_sniper_6
team 0, squad 1, group 1, warlab_sniper_7
team 0, squad 1, group 1, warlab_sniper_8
team 0, squad 1, group 1, warlab_assault_1
team 0, squad 1, group 1, warlab_assault_2
team 0, squad 1, group 1, warlab_assault_3
team 0, squad 1, group 1, warlab_assault_4
team 0, squad 1, group 1, warlab_assault_5
team 0, squad 1, group 1, warlab_assault_6
team 0, squad 1, group 1, warlab_assault_7
team 0, squad 1, group 1, warlab_patrol_1
team 0, squad 1, group 1, warlab_patrol_2
team 0, squad 1, group 1, warlab_patrol_3
team 0, squad 1, group 1, warlab_operator
team 0, squad 1, group 1, warlab_scout_1
team 0, squad 1, group 1, warlab_scout_2
team 0, squad 1, group 1, warlab_scout_3
team 0, squad 1, group 1, warlab_scout_4
team 0, squad 1, group 1, warlab_scout_5
team 0, squad 1, group 1, freedomer_leader
team 0, squad 1, group 1, freedomer_assault_1
team 0, squad 1, group 1, freedomer_assault_2
team 0, squad 1, group 1, freedomer_sniper_1
team 0, squad 1, group 1, freedomer_sniper_2
team 0, squad 1, group 1, freedomer_sniper_3
team 0, squad 1, group 1, dutyman_leader
team 0, squad 1, group 1, dutyman_assault_1
team 0, squad 1, group 1, dutyman_assault_2
team 0, squad 1, group 1, dutyman_sniper_1
team 0, squad 1, group 1, dutyman_sniper_2
team 0, squad 1, group 1, dutyman_sniper_3
team 0, squad 0, group 0, gen_dead_ecolog
team 0, squad 1, group 1, stalker_run_forest
importing alife objects from file alife_l22_marsh.ltx...
team 0, squad 0, group 0, mar_bloodsucker_strong
team 0, squad 0, group 0, mar_boar_normal
team 0, squad 0, group 0, mar_boar_normal_0000
team 0, squad 0, group 0, mar_boar_normal_0001
team 0, squad 0, group 0, mar_boar_normal_0002
team 0, squad 0, group 0, mar_boar_normal_0003
team 0, squad 0, group 0, mar_boar_weak
team 0, squad 0, group 0, mar_boar_weak_0000
team 0, squad 0, group 0, mar_boar_weak_0001
team 0, squad 0, group 0, mar_boar_weak_0002
team 0, squad 0, group 0, mar_boar_weak_0003
team 0, squad 0, group 0, mar_boar_weak_0004
team 0, squad 0, group 0, mar_flesh_normal
team 0, squad 0, group 0, mar_flesh_normal_0000
team 0, squad 0, group 0, mar_flesh_normal_0001
team 0, squad 0, group 0, mar_flesh_strong
team 0, squad 0, group 0, mar_flesh_strong_0000
team 0, squad 0, group 0, mar_flesh_strong_0001
team 0, squad 0, group 0, mar_flesh_strong_0002
team 0, squad 0, group 0, mar_flesh_strong_0003
team 0, squad 0, group 0, mar_flesh_weak
team 0, squad 0, group 0, mar_flesh_weak_0000
team 0, squad 0, group 0, mar_flesh_weak_0001
team 0, squad 0, group 0, mar_flesh_weak_0002
team 0, squad 0, group 0, mar_flesh_weak_0003
team 0, squad 0, group 0, mar_flesh_weak_0004
team 0, squad 0, group 0, mar_flesh_weak_0005
team 0, squad 0, group 0, mar_flesh_weak_0006
team 0, squad 0, group 0, mar_m_crow
team 0, squad 0, group 0, mar_m_crow_0000
team 0, squad 0, group 0, mar_m_crow_0001
team 0, squad 0, group 0, mar_m_crow_0002
team 0, squad 0, group 0, mar_m_crow_0003
team 0, squad 0, group 0, mar_m_crow_0004
team 0, squad 0, group 0, mar_m_crow_0005
team 0, squad 0, group 0, mar_m_crow_0006
team 0, squad 0, group 0, mar_m_crow_0007
team 0, squad 0, group 0, mar_m_crow_0008
team 0, squad 0, group 0, mar_m_crow_0009
team 0, squad 0, group 0, mar_m_crow_0010
team 0, squad 0, group 0, mar_m_crow_0011
team 0, squad 0, group 0, mar_m_crow_0012
team 0, squad 0, group 0, mar_m_crow_0013
team 0, squad 0, group 0, mar_m_crow_0014
team 0, squad 0, group 0, mar_pseudodog_strong
importing alife objects from file alife_l23_x9.ltx...
importing artefact spawn places data...
importing way objects from file way_k01_darkscape_ogse.ltx...
importing way objects from file way_l01_escape.ltx...
importing way objects from file way_l02_garbage.ltx...
importing way objects from file way_l03_agroprom.ltx...
importing way objects from file way_l03u_agr_underground.ltx...
importing way objects from file way_l04_darkvalley.ltx...
importing way objects from file way_l04u_labx18.ltx...
importing way objects from file way_l05_bar.ltx...
importing way objects from file way_l06_rostok.ltx...
importing way objects from file way_l07_military.ltx...
importing way objects from file way_l08_yantar.ltx...
importing way objects from file way_l08u_brainlab.ltx...
importing way objects from file way_l09_deadcity_ogse.ltx...
importing way objects from file way_l10_radar.ltx...
importing way objects from file way_l10u_bunker.ltx...
importing way objects from file way_l11_pripyat.ltx...
importing way objects from file way_l12_stancia.ltx...
importing way objects from file way_l12_stancia_2.ltx...
importing way objects from file way_l12u_control_monolith.ltx...
importing way objects from file way_l12u_sarcofag.ltx...
importing way objects from file way_l13_generators_ogse.ltx...
importing way objects from file way_l22_marsh.ltx...
importing way objects from file way_l23_x9.ltx...
writing sources...
writing header...
writing alife objects...
writing artefact spawn places...
writing way objects...
writing graph...
done!
